State_Machine/simulation/qsim/State_Machine.msim.vcd
$comment
	File created using the following command:
		vcd file State_Machine.msim.vcd -direction
$end
$date
	Fri Oct 26 16:53:13 2018
$end
$version
	ModelSim Version 10.5b
$end
$timescale
	1ps
$end

$scope module state_machine_vhd_vec_tst $end
$var wire 1 ! clk $end
$var wire 1 " P $end
$var wire 1 # R $end
$var wire 1 $ reset $end
$var wire 1 % saida [1] $end
$var wire 1 & saida [0] $end

$scope module i1 $end
$var wire 1 ' gnd $end
$var wire 1 ( vcc $end
$var wire 1 ) unknown $end
$var wire 1 * devoe $end
$var wire 1 + devclrn $end
$var wire 1 , devpor $end
$var wire 1 - ww_devoe $end
$var wire 1 . ww_devclrn $end
$var wire 1 / ww_devpor $end
$var wire 1 0 ww_clk $end
$var wire 1 1 ww_P $end
$var wire 1 2 ww_reset $end
$var wire 1 3 ww_R $end
$var wire 1 4 ww_saida [1] $end
$var wire 1 5 ww_saida [0] $end
$var wire 1 6 \R~output_o\ $end
$var wire 1 7 \saida[0]~output_o\ $end
$var wire 1 8 \saida[1]~output_o\ $end
$var wire 1 9 \clk~input_o\ $end
$var wire 1 : \P~input_o\ $end
$var wire 1 ; \reset~input_o\ $end
$var wire 1 < \Selector0~0_combout\ $end
$var wire 1 = \estado.A~q\ $end
$var wire 1 > \Selector1~0_combout\ $end
$var wire 1 ? \estado.B~q\ $end
$var wire 1 @ \estado.C~0_combout\ $end
$var wire 1 A \estado.C~q\ $end
$var wire 1 B \Selector3~0_combout\ $end
$var wire 1 C \estado.D~q\ $end
$var wire 1 D \saida~0_combout\ $end
$var wire 1 E \saida~1_combout\ $end
$var wire 1 F \ALT_INV_reset~input_o\ $end
$var wire 1 G \ALT_INV_P~input_o\ $end
$var wire 1 H \ALT_INV_saida~1_combout\ $end
$var wire 1 I \ALT_INV_estado.B~q\ $end
$var wire 1 J \ALT_INV_saida~0_combout\ $end
$var wire 1 K \ALT_INV_estado.C~q\ $end
$var wire 1 L \ALT_INV_estado.A~q\ $end
$var wire 1 M \ALT_INV_estado.D~q\ $end
$upscope $end
$upscope $end
$enddefinitions $end
#0
$dumpvars
0!
0"
0#
0$
0'
1(
x)
1*
1+
1,
1-
1.
1/
00
01
02
03
06
07
08
09
0:
0;
0<
0=
0>
0?
0@
0A
0B
0C
1D
1E
1F
1G
0H
1I
0J
1K
1L
1M
04
05
0%
0&
$end
#20000
1$
12
1;
0F
#40000
0$
1!
1"
02
10
11
1:
19
0;
1F
0G
1<
1>
#60000
1$
12
1;
0F
#80000
0$
0!
0"
02
00
01
0:
09
0;
1F
1G
0<
0>
#100000
1$
12
1;
0F
#120000
0$
1!
1"
02
10
11
1:
19
0;
1F
0G
1<
1>
#140000
1$
12
1;
0F
#160000
0$
0!
0"
02
00
01
0:
09
0;
1F
1G
0<
0>
#180000
1$
12
1;
0F
#200000
0$
1!
1"
02
10
11
1:
19
0;
1F
0G
1<
1>
#220000
1$
12
1;
0F
#240000
0$
0!
0"
02
00
01
0:
09
0;
1F
1G
0<
0>
#260000
1$
12
1;
0F
#280000
0$
1!
1"
02
10
11
1:
19
0;
1F
0G
1<
1>
#300000
1$
12
1;
0F
#320000
0$
0!
0"
02
00
01
0:
09
0;
1F
1G
0<
0>
#340000
1$
12
1;
0F
#360000
0$
1!
1"
02
10
11
1:
19
0;
1F
0G
1<
1>
#380000
1$
12
1;
0F
#400000
0$
0!
0"
02
00
01
0:
09
0;
1F
1G
0<
0>
#420000
1$
12
1;
0F
#440000
0$
1!
1"
02
10
11
1:
19
0;
1F
0G
1<
1>
#460000
1$
12
1;
0F
#480000
0$
0!
0"
02
00
01
0:
09
0;
1F
1G
0<
0>
#500000
1$
12
1;
0F
#520000
0$
1!
1"
02
10
11
1:
19
0;
1F
0G
1<
1>
#540000
1$
12
1;
0F
#560000
0$
0!
0"
02
00
01
0:
09
0;
1F
1G
0<
0>
#580000
1$
12
1;
0F
#600000
0$
1!
1"
02
10
11
1:
19
0;
1F
0G
1<
1>
#620000
1$
12
1;
0F
#640000
0$
0!
0"
02
00
01
0:
09
0;
1F
1G
0<
0>
#660000
1$
12
1;
0F
#680000
0$
1!
1"
02
10
11
1:
19
0;
1F
0G
1<
1>
#700000
1$
12
1;
0F
#720000
0$
0!
0"
02
00
01
0:
09
0;
1F
1G
0<
0>
#740000
1$
12
1;
0F
#760000
0$
1!
1"
02
10
11
1:
19
0;
1F
0G
1<
1>
#780000
1$
12
1;
0F
#800000
0$
0!
0"
02
00
01
0:
09
0;
1F
1G
0<
0>
#820000
1$
12
1;
0F
#840000
0$
1!
1"
02
10
11
1:
19
0;
1F
0G
1<
1>
#860000
1$
12
1;
0F
#880000
0$
0!
0"
02
00
01
0:
09
0;
1F
1G
0<
0>
#900000
1$
12
1;
0F
#920000
0$
1!
1"
02
10
11
1:
19
0;
1F
0G
1<
1>
#940000
1$
12
1;
0F
#960000
0$
0!
0"
02
00
01
0:
09
0;
1F
1G
0<
0>
#980000
1$
12
1;
0F
