Contador/simulation/qsim/Contador.msim.vcd
$comment
	File created using the following command:
		vcd file Contador.msim.vcd -direction
$end
$date
	Fri Oct 26 17:43:11 2018
$end
$version
	ModelSim Version 10.5b
$end
$timescale
	1ps
$end

$scope module contador_vhd_vec_tst $end
$var wire 1 ! clear $end
$var wire 1 " clk $end
$var wire 1 # Q [1] $end
$var wire 1 $ Q [0] $end

$scope module i1 $end
$var wire 1 % gnd $end
$var wire 1 & vcc $end
$var wire 1 ' unknown $end
$var wire 1 ( devoe $end
$var wire 1 ) devclrn $end
$var wire 1 * devpor $end
$var wire 1 + ww_devoe $end
$var wire 1 , ww_devclrn $end
$var wire 1 - ww_devpor $end
$var wire 1 . ww_clear $end
$var wire 1 / ww_clk $end
$var wire 1 0 ww_Q [1] $end
$var wire 1 1 ww_Q [0] $end
$var wire 1 2 \Q[0]~output_o\ $end
$var wire 1 3 \Q[1]~output_o\ $end
$var wire 1 4 \clk~input_o\ $end
$var wire 1 5 \clear~input_o\ $end
$var wire 1 6 \Q~0_combout\ $end
$var wire 1 7 \Q[0]~reg0_q\ $end
$var wire 1 8 \Q~1_combout\ $end
$var wire 1 9 \Q[1]~reg0_q\ $end
$var wire 1 : \ALT_INV_clear~input_o\ $end
$var wire 1 ; \ALT_INV_Q[1]~reg0_q\ $end
$var wire 1 < \ALT_INV_Q[0]~reg0_q\ $end
$upscope $end
$upscope $end
$enddefinitions $end
#0
$dumpvars
0!
0"
0%
1&
x'
1(
1)
1*
1+
1,
1-
0.
0/
02
03
04
05
16
07
08
09
1:
1;
1<
0#
0$
00
01
$end
#40000
1"
1/
14
17
0<
06
18
12
11
1$
#80000
0"
1!
0/
1.
15
04
0:
08
#120000
1"
1/
14
07
1<
02
01
0$
#160000
0"
0!
0/
0.
05
04
1:
16
#200000
1"
1/
14
17
0<
06
18
12
11
1$
#240000
0"
1!
0/
1.
15
04
0:
08
#280000
1"
1/
14
07
1<
02
01
0$
#320000
0"
0!
0/
0.
05
04
1:
16
#360000
1"
1/
14
17
0<
06
18
12
11
1$
#400000
0"
1!
0/
1.
15
04
0:
08
#440000
1"
1/
14
07
1<
02
01
0$
#480000
0"
0!
0/
0.
05
04
1:
16
#520000
1"
1/
14
17
0<
06
18
12
11
1$
#560000
0"
1!
0/
1.
15
04
0:
08
#600000
1"
1/
14
07
1<
02
01
0$
#640000
0"
0!
0/
0.
05
04
1:
16
#680000
1"
1/
14
17
0<
06
18
12
11
1$
#720000
0"
1!
0/
1.
15
04
0:
08
#760000
1"
1/
14
07
1<
02
01
0$
#800000
0"
0!
0/
0.
05
04
1:
16
#840000
1"
1/
14
17
0<
06
18
12
11
1$
#880000
0"
1!
0/
1.
15
04
0:
08
#920000
1"
1/
14
07
1<
02
01
0$
#960000
0"
0!
0/
0.
05
04
1:
16
