mux_4_to_1/simulation/qsim/mux_4_to_1.msim.vcd
$comment
	File created using the following command:
		vcd file mux_4_to_1.msim.vcd -direction
$end
$date
	Fri Oct 26 10:20:42 2018
$end
$version
	ModelSim Version 10.5b
$end
$timescale
	1ps
$end

$scope module mux_4_to_1_vhd_vec_tst $end
$var wire 1 ! A [3] $end
$var wire 1 " A [2] $end
$var wire 1 # A [1] $end
$var wire 1 $ A [0] $end
$var wire 1 % sel [1] $end
$var wire 1 & sel [0] $end
$var wire 1 ' X $end

$scope module i1 $end
$var wire 1 ( gnd $end
$var wire 1 ) vcc $end
$var wire 1 * unknown $end
$var wire 1 + devoe $end
$var wire 1 , devclrn $end
$var wire 1 - devpor $end
$var wire 1 . ww_devoe $end
$var wire 1 / ww_devclrn $end
$var wire 1 0 ww_devpor $end
$var wire 1 1 ww_sel [1] $end
$var wire 1 2 ww_sel [0] $end
$var wire 1 3 ww_A [3] $end
$var wire 1 4 ww_A [2] $end
$var wire 1 5 ww_A [1] $end
$var wire 1 6 ww_A [0] $end
$var wire 1 7 ww_X $end
$var wire 1 8 \X~output_o\ $end
$var wire 1 9 \A[0]~input_o\ $end
$var wire 1 : \A[1]~input_o\ $end
$var wire 1 ; \A[2]~input_o\ $end
$var wire 1 < \A[3]~input_o\ $end
$var wire 1 = \sel[0]~input_o\ $end
$var wire 1 > \sel[1]~input_o\ $end
$var wire 1 ? \Mux0~0_combout\ $end
$var wire 1 @ \ALT_INV_sel[1]~input_o\ $end
$var wire 1 A \ALT_INV_sel[0]~input_o\ $end
$var wire 1 B \ALT_INV_A[3]~input_o\ $end
$var wire 1 C \ALT_INV_A[2]~input_o\ $end
$var wire 1 D \ALT_INV_A[1]~input_o\ $end
$var wire 1 E \ALT_INV_A[0]~input_o\ $end
$upscope $end
$upscope $end
$enddefinitions $end
#0
$dumpvars
0'
0(
1)
x*
1+
1,
1-
1.
1/
10
07
08
09
0:
0;
0<
0=
0>
0?
1@
1A
1B
1C
1D
1E
0!
0"
0#
0$
0%
0&
01
02
03
04
05
06
$end
#2500
1$
16
19
0E
1?
18
17
1'
#5000
0$
06
09
1E
0?
08
07
0'
#6000
1#
15
1:
0D
#7500
1$
16
19
0E
1?
18
17
1'
#10000
0$
1"
06
14
1;
09
1E
0C
0?
08
07
0'
#12000
0#
05
0:
1D
#12500
1$
16
19
0E
1?
18
17
1'
#15000
0$
06
09
1E
0?
08
07
0'
#17500
1$
1!
16
13
1<
19
0E
0B
1?
18
17
1'
#18000
1#
15
1:
0D
#20000
0$
0"
06
04
0;
09
1E
1C
0?
08
07
0'
#22500
1$
16
19
0E
1?
18
17
1'
#24000
0#
05
0:
1D
#25000
0$
06
09
1E
0?
08
07
0'
#27500
1$
16
19
0E
1?
18
17
1'
#30000
0$
1#
1"
06
15
14
1;
1:
09
1E
0D
0C
0?
08
07
0'
#32500
1$
16
19
0E
1?
18
17
1'
#35000
0$
0!
06
03
0<
09
1E
1B
0?
08
07
0'
#36000
0#
05
0:
1D
#37500
1$
16
19
0E
1?
18
17
1'
#40000
0$
0"
06
04
0;
09
1E
1C
0?
08
07
0'
#42000
1#
15
1:
0D
#42500
1$
16
19
0E
1?
18
17
1'
#45000
0$
06
09
1E
0?
08
07
0'
#47500
1$
16
19
0E
1?
18
17
1'
#48000
0#
05
0:
1D
#50000
0$
1"
06
14
1;
09
1E
0C
0?
08
07
0'
#52500
1$
1!
16
13
1<
19
0E
0B
1?
18
17
1'
#54000
1#
15
1:
0D
#55000
0$
06
09
1E
0?
08
07
0'
#57500
1$
16
19
0E
1?
18
17
1'
#60000
0$
0#
0"
06
05
04
0;
0:
09
1E
1D
1C
0?
08
07
0'
#62500
1$
16
19
0E
1?
18
17
1'
#65000
0$
06
09
1E
0?
08
07
0'
#66000
1#
15
1:
0D
#67500
1$
16
19
0E
1?
18
17
1'
#70000
0$
1"
0!
1&
06
14
03
12
1=
0<
1;
09
1E
0C
1B
0A
#72000
0#
05
0:
1D
0?
08
07
0'
#72500
1$
16
19
0E
#75000
0$
06
09
1E
#77500
1$
16
19
0E
#78000
1#
15
1:
0D
1?
18
17
1'
#80000
0$
0"
06
04
0;
09
1E
1C
#82500
1$
16
19
0E
#84000
0#
05
0:
1D
0?
08
07
0'
#85000
0$
06
09
1E
#87500
1$
1!
16
13
1<
19
0E
0B
#90000
0$
1#
1"
06
15
14
1;
1:
09
1E
0D
0C
1?
18
17
1'
#92500
1$
16
19
0E
#95000
0$
06
09
1E
#96000
0#
05
0:
1D
0?
08
07
0'
#97500
1$
16
19
0E
#100000
0$
0"
06
04
0;
09
1E
1C
#102000
1#
15
1:
0D
1?
18
17
1'
#102500
1$
16
19
0E
#105000
0$
0!
06
03
0<
09
1E
1B
#107500
1$
16
19
0E
#108000
0#
05
0:
1D
0?
08
07
0'
#110000
0$
1"
06
14
1;
09
1E
0C
#112500
1$
16
19
0E
#114000
1#
15
1:
0D
1?
18
17
1'
#115000
0$
06
09
1E
#117500
1$
16
19
0E
#120000
0$
0#
0"
06
05
04
0;
0:
09
1E
1D
1C
0?
08
07
0'
#122500
1$
1!
16
13
1<
19
0E
0B
#125000
0$
06
09
1E
#126000
1#
15
1:
0D
1?
18
17
1'
#127500
1$
16
19
0E
#130000
0$
1"
06
14
1;
09
1E
0C
#132000
0#
05
0:
1D
0?
08
07
0'
#132500
1$
16
19
0E
#135000
0$
06
09
1E
#137500
1$
16
19
0E
#138000
1#
15
1:
0D
1?
18
17
1'
#140000
0$
0"
0!
06
04
03
0<
0;
09
1E
1C
1B
#142500
1$
16
19
0E
#144000
0#
05
0:
1D
0?
08
07
0'
#145000
0$
06
09
1E
#147500
1$
16
19
0E
#150000
0$
1#
1"
06
15
14
1;
1:
09
1E
0D
0C
1?
18
17
1'
#152500
1$
16
19
0E
#155000
0$
06
09
1E
#156000
0#
05
0:
1D
0?
08
07
0'
#157500
1$
1!
16
13
1<
19
0E
0B
#160000
0$
0"
0&
1%
06
04
02
11
1>
0=
0;
09
1E
1C
1A
0@
#162000
1#
15
1:
0D
#162500
1$
16
19
0E
#165000
0$
06
09
1E
#167500
1$
16
19
0E
#168000
0#
05
0:
1D
#170000
0$
1"
06
14
1;
09
1E
0C
1?
18
17
1'
#172500
1$
16
19
0E
#174000
1#
15
1:
0D
#175000
0$
0!
06
03
0<
09
1E
1B
#177500
1$
16
19
0E
#180000
0$
0#
0"
06
05
04
0;
0:
09
1E
1D
1C
0?
08
07
0'
#182500
1$
16
19
0E
#185000
0$
06
09
1E
#186000
1#
15
1:
0D
#187500
1$
16
19
0E
#190000
0$
1"
06
14
1;
09
1E
0C
1?
18
17
1'
#192000
0#
05
0:
1D
#192500
1$
1!
16
13
1<
19
0E
0B
#195000
0$
06
09
1E
#197500
1$
16
19
0E
#198000
1#
15
1:
0D
#200000
0$
0"
06
04
0;
09
1E
1C
0?
08
07
0'
#202500
1$
16
19
0E
#204000
0#
05
0:
1D
#205000
0$
06
09
1E
#207500
1$
16
19
0E
#210000
0$
1#
1"
0!
1&
06
15
14
03
12
1=
0<
1;
1:
09
1E
0D
0C
1B
0A
#212500
1$
16
19
0E
#215000
0$
06
09
1E
#216000
0#
05
0:
1D
#217500
1$
16
19
0E
#220000
0$
0"
06
04
0;
09
1E
1C
#222000
1#
15
1:
0D
#222500
1$
16
19
0E
#225000
0$
06
09
1E
#227500
1$
1!
16
13
1<
19
0E
0B
1?
18
17
1'
#228000
0#
05
0:
1D
#230000
0$
1"
06
14
1;
09
1E
0C
#232500
1$
16
19
0E
#234000
1#
15
1:
0D
#235000
0$
06
09
1E
#237500
1$
16
19
0E
#240000
0$
0#
0"
06
05
04
0;
0:
09
1E
1D
1C
#242500
1$
16
19
0E
#245000
0$
0!
06
03
0<
09
1E
1B
0?
08
07
0'
#246000
1#
15
1:
0D
#247500
1$
16
19
0E
#250000
0$
1"
06
14
1;
09
1E
0C
#252000
0#
05
0:
1D
#252500
1$
16
19
0E
#255000
0$
06
09
1E
#257500
1$
16
19
0E
#258000
1#
15
1:
0D
#260000
0$
0"
06
04
0;
09
1E
1C
#262500
1$
1!
16
13
1<
19
0E
0B
1?
18
17
1'
#264000
0#
05
0:
1D
#265000
0$
06
09
1E
#267500
1$
16
19
0E
#270000
0$
1#
1"
06
15
14
1;
1:
09
1E
0D
0C
#272500
1$
16
19
0E
#275000
0$
06
09
1E
#276000
0#
05
0:
1D
#277500
1$
16
19
0E
#280000
0$
0"
0!
0&
0%
06
04
03
02
01
0>
0=
0<
0;
09
1E
1C
1B
1A
1@
0?
08
07
0'
#282000
1#
15
1:
0D
#282500
1$
16
19
0E
1?
18
17
1'
#285000
0$
06
09
1E
0?
08
07
0'
#287500
1$
16
19
0E
1?
18
17
1'
#288000
0#
05
0:
1D
#290000
0$
1"
06
14
1;
09
1E
0C
0?
08
07
0'
#292500
1$
16
19
0E
1?
18
17
1'
#294000
1#
15
1:
0D
#295000
0$
06
09
1E
0?
08
07
0'
#297500
1$
1!
16
13
1<
19
0E
0B
1?
18
17
1'
#300000
0$
0#
0"
06
05
04
0;
0:
09
1E
1D
1C
0?
08
07
0'
#302500
1$
16
19
0E
1?
18
17
1'
#305000
0$
06
09
1E
0?
08
07
0'
#306000
1#
15
1:
0D
#307500
1$
16
19
0E
1?
18
17
1'
#310000
0$
1"
06
14
1;
09
1E
0C
0?
08
07
0'
#312000
0#
05
0:
1D
#312500
1$
16
19
0E
1?
18
17
1'
#315000
0$
0!
06
03
0<
09
1E
1B
0?
08
07
0'
#317500
1$
16
19
0E
1?
18
17
1'
#318000
1#
15
1:
0D
#320000
0$
0"
06
04
0;
09
1E
1C
0?
08
07
0'
#322500
1$
16
19
0E
1?
18
17
1'
#324000
0#
05
0:
1D
#325000
0$
06
09
1E
0?
08
07
0'
#327500
1$
16
19
0E
1?
18
17
1'
#330000
0$
1#
1"
06
15
14
1;
1:
09
1E
0D
0C
0?
08
07
0'
#332500
1$
1!
16
13
1<
19
0E
0B
1?
18
17
1'
#335000
0$
06
09
1E
0?
08
07
0'
#336000
0#
05
0:
1D
#337500
1$
16
19
0E
1?
18
17
1'
#340000
0$
0"
06
04
0;
09
1E
1C
0?
08
07
0'
#342000
1#
15
1:
0D
#342500
1$
16
19
0E
1?
18
17
1'
#345000
0$
06
09
1E
0?
08
07
0'
#347500
1$
16
19
0E
1?
18
17
1'
#348000
0#
05
0:
1D
#350000
0$
1"
0!
06
14
03
0<
1;
09
1E
0C
1B
0?
08
07
0'
#352500
1$
16
19
0E
1?
18
17
1'
#354000
1#
15
1:
0D
#355000
0$
06
09
1E
0?
08
07
0'
#357500
1$
16
19
0E
1?
18
17
1'
#360000
0$
0#
0"
06
05
04
0;
0:
09
1E
1D
1C
0?
08
07
0'
#362500
1$
16
19
0E
1?
18
17
1'
#365000
0$
06
09
1E
0?
08
07
0'
#366000
1#
15
1:
0D
#367500
1$
1!
16
13
1<
19
0E
0B
1?
18
17
1'
#370000
0$
1"
06
14
1;
09
1E
0C
0?
08
07
0'
#372000
0#
05
0:
1D
#372500
1$
16
19
0E
1?
18
17
1'
#375000
0$
06
09
1E
0?
08
07
0'
#377500
1$
16
19
0E
1?
18
17
1'
#378000
1#
15
1:
0D
#380000
0$
0"
06
04
0;
09
1E
1C
0?
08
07
0'
#382500
1$
16
19
0E
1?
18
17
1'
#384000
0#
05
0:
1D
#385000
0$
0!
06
03
0<
09
1E
1B
0?
08
07
0'
#387500
1$
16
19
0E
1?
18
17
1'
#390000
0$
1#
1"
06
15
14
1;
1:
09
1E
0D
0C
0?
08
07
0'
#392500
1$
16
19
0E
1?
18
17
1'
#395000
0$
06
09
1E
0?
08
07
0'
#396000
0#
05
0:
1D
#397500
1$
16
19
0E
1?
18
17
1'
#400000
0$
0"
06
04
0;
09
1E
1C
0?
08
07
0'
#402000
1#
15
1:
0D
#402500
1$
1!
16
13
1<
19
0E
0B
1?
18
17
1'
#405000
0$
06
09
1E
0?
08
07
0'
#407500
1$
16
19
0E
1?
18
17
1'
#408000
0#
05
0:
1D
#410000
0$
1"
06
14
1;
09
1E
0C
0?
08
07
0'
#412500
1$
16
19
0E
1?
18
17
1'
#414000
1#
15
1:
0D
#415000
0$
06
09
1E
0?
08
07
0'
#417500
1$
16
19
0E
1?
18
17
1'
#420000
0$
0#
0"
0!
06
05
04
03
0<
0;
0:
09
1E
1D
1C
1B
0?
08
07
0'
#422500
1$
16
19
0E
1?
18
17
1'
#425000
0$
06
09
1E
0?
08
07
0'
#426000
1#
15
1:
0D
#427500
1$
16
19
0E
1?
18
17
1'
#430000
0$
1"
06
14
1;
09
1E
0C
0?
08
07
0'
#432000
0#
05
0:
1D
#432500
1$
16
19
0E
1?
18
17
1'
#435000
0$
06
09
1E
0?
08
07
0'
#437500
1$
1!
16
13
1<
19
0E
0B
1?
18
17
1'
#438000
1#
15
1:
0D
#440000
0$
0"
06
04
0;
09
1E
1C
0?
08
07
0'
#442500
1$
16
19
0E
1?
18
17
1'
#444000
0#
05
0:
1D
#445000
0$
06
09
1E
0?
08
07
0'
#447500
1$
16
19
0E
1?
18
17
1'
#450000
0$
1#
1"
06
15
14
1;
1:
09
1E
0D
0C
0?
08
07
0'
#452500
1$
16
19
0E
1?
18
17
1'
#455000
0$
0!
06
03
0<
09
1E
1B
0?
08
07
0'
#456000
0#
05
0:
1D
#457500
1$
16
19
0E
1?
18
17
1'
#460000
0$
0"
06
04
0;
09
1E
1C
0?
08
07
0'
#462000
1#
15
1:
0D
#462500
1$
16
19
0E
1?
18
17
1'
#465000
0$
06
09
1E
0?
08
07
0'
#467500
1$
16
19
0E
1?
18
17
1'
#468000
0#
05
0:
1D
#470000
0$
1"
06
14
1;
09
1E
0C
0?
08
07
0'
#472500
1$
1!
16
13
1<
19
0E
0B
1?
18
17
1'
#474000
1#
15
1:
0D
#475000
0$
06
09
1E
0?
08
07
0'
#477500
1$
16
19
0E
1?
18
17
1'
#480000
0$
0#
0"
06
05
04
0;
0:
09
1E
1D
1C
0?
08
07
0'
#482500
1$
16
19
0E
1?
18
17
1'
#485000
0$
06
09
1E
0?
08
07
0'
#486000
1#
15
1:
0D
#487500
1$
16
19
0E
1?
18
17
1'
#490000
0$
1"
0!
06
14
03
0<
1;
09
1E
0C
1B
0?
08
07
0'
#492000
0#
05
0:
1D
#492500
1$
16
19
0E
1?
18
17
1'
#495000
0$
06
09
1E
0?
08
07
0'
#497500
1$
16
19
0E
1?
18
17
1'
#498000
1#
15
1:
0D
#500000
0$
0"
06
04
0;
09
1E
1C
0?
08
07
0'
#502500
1$
16
19
0E
1?
18
17
1'
#504000
0#
05
0:
1D
#505000
0$
06
09
1E
0?
08
07
0'
#507500
1$
1!
16
13
1<
19
0E
0B
1?
18
17
1'
#510000
0$
1#
1"
06
15
14
1;
1:
09
1E
0D
0C
0?
08
07
0'
#512500
1$
16
19
0E
1?
18
17
1'
#515000
0$
06
09
1E
0?
08
07
0'
#516000
0#
05
0:
1D
#517500
1$
16
19
0E
1?
18
17
1'
#520000
0$
0"
06
04
0;
09
1E
1C
0?
08
07
0'
#522000
1#
15
1:
0D
#522500
1$
16
19
0E
1?
18
17
1'
#525000
0$
0!
06
03
0<
09
1E
1B
0?
08
07
0'
#527500
1$
16
19
0E
1?
18
17
1'
#528000
0#
05
0:
1D
#530000
0$
1"
06
14
1;
09
1E
0C
0?
08
07
0'
#532500
1$
16
19
0E
1?
18
17
1'
#534000
1#
15
1:
0D
#535000
0$
06
09
1E
0?
08
07
0'
#537500
1$
16
19
0E
1?
18
17
1'
#540000
0$
0#
0"
06
05
04
0;
0:
09
1E
1D
1C
0?
08
07
0'
#542500
1$
1!
16
13
1<
19
0E
0B
1?
18
17
1'
#545000
0$
06
09
1E
0?
08
07
0'
#546000
1#
15
1:
0D
#547500
1$
16
19
0E
1?
18
17
1'
#550000
0$
1"
06
14
1;
09
1E
0C
0?
08
07
0'
#552000
0#
05
0:
1D
#552500
1$
16
19
0E
1?
18
17
1'
#555000
0$
06
09
1E
0?
08
07
0'
#557500
1$
16
19
0E
1?
18
17
1'
#558000
1#
15
1:
0D
#560000
0$
0"
0!
06
04
03
0<
0;
09
1E
1C
1B
0?
08
07
0'
#562500
1$
16
19
0E
1?
18
17
1'
#564000
0#
05
0:
1D
#565000
0$
06
09
1E
0?
08
07
0'
#567500
1$
16
19
0E
1?
18
17
1'
#570000
0$
1#
1"
06
15
14
1;
1:
09
1E
0D
0C
0?
08
07
0'
#572500
1$
16
19
0E
1?
18
17
1'
#575000
0$
06
09
1E
0?
08
07
0'
#576000
0#
05
0:
1D
#577500
1$
1!
16
13
1<
19
0E
0B
1?
18
17
1'
#580000
0$
0"
06
04
0;
09
1E
1C
0?
08
07
0'
#582000
1#
15
1:
0D
#582500
1$
16
19
0E
1?
18
17
1'
#585000
0$
06
09
1E
0?
08
07
0'
#587500
1$
16
19
0E
1?
18
17
1'
#588000
0#
05
0:
1D
#590000
0$
1"
06
14
1;
09
1E
0C
0?
08
07
0'
#592500
1$
16
19
0E
1?
18
17
1'
#594000
1#
15
1:
0D
#595000
0$
0!
06
03
0<
09
1E
1B
0?
08
07
0'
#597500
1$
16
19
0E
1?
18
17
1'
#600000
0$
0#
0"
06
05
04
0;
0:
09
1E
1D
1C
0?
08
07
0'
#602500
1$
16
19
0E
1?
18
17
1'
#605000
0$
06
09
1E
0?
08
07
0'
#606000
1#
15
1:
0D
#607500
1$
16
19
0E
1?
18
17
1'
#610000
0$
1"
06
14
1;
09
1E
0C
0?
08
07
0'
#612000
0#
05
0:
1D
#612500
1$
1!
16
13
1<
19
0E
0B
1?
18
17
1'
#615000
0$
06
09
1E
0?
08
07
0'
#617500
1$
16
19
0E
1?
18
17
1'
#618000
1#
15
1:
0D
#620000
0$
0"
06
04
0;
09
1E
1C
0?
08
07
0'
#622500
1$
16
19
0E
1?
18
17
1'
#624000
0#
05
0:
1D
#625000
0$
06
09
1E
0?
08
07
0'
#627500
1$
16
19
0E
1?
18
17
1'
#630000
0$
1#
1"
0!
06
15
14
03
0<
1;
1:
09
1E
0D
0C
1B
0?
08
07
0'
#632500
1$
16
19
0E
1?
18
17
1'
#635000
0$
06
09
1E
0?
08
07
0'
#636000
0#
05
0:
1D
#637500
1$
16
19
0E
1?
18
17
1'
#640000
0$
0"
06
04
0;
09
1E
1C
0?
08
07
0'
#642000
1#
15
1:
0D
#642500
1$
16
19
0E
1?
18
17
1'
#645000
0$
06
09
1E
0?
08
07
0'
#647500
1$
1!
16
13
1<
19
0E
0B
1?
18
17
1'
#648000
0#
05
0:
1D
#650000
0$
1"
06
14
1;
09
1E
0C
0?
08
07
0'
#652500
1$
16
19
0E
1?
18
17
1'
#654000
1#
15
1:
0D
#655000
0$
06
09
1E
0?
08
07
0'
#657500
1$
16
19
0E
1?
18
17
1'
#660000
0$
0#
0"
06
05
04
0;
0:
09
1E
1D
1C
0?
08
07
0'
#662500
1$
16
19
0E
1?
18
17
1'
#665000
0$
0!
06
03
0<
09
1E
1B
0?
08
07
0'
#666000
1#
15
1:
0D
#667500
1$
16
19
0E
1?
18
17
1'
#670000
0$
1"
06
14
1;
09
1E
0C
0?
08
07
0'
#672000
0#
05
0:
1D
#672500
1$
16
19
0E
1?
18
17
1'
#675000
0$
06
09
1E
0?
08
07
0'
#677500
1$
16
19
0E
1?
18
17
1'
#678000
1#
15
1:
0D
#680000
0$
0"
06
04
0;
09
1E
1C
0?
08
07
0'
#682500
1$
1!
16
13
1<
19
0E
0B
1?
18
17
1'
#684000
0#
05
0:
1D
#685000
0$
06
09
1E
0?
08
07
0'
#687500
1$
16
19
0E
1?
18
17
1'
#690000
0$
1#
1"
06
15
14
1;
1:
09
1E
0D
0C
0?
08
07
0'
#692500
1$
16
19
0E
1?
18
17
1'
#695000
0$
06
09
1E
0?
08
07
0'
#696000
0#
05
0:
1D
#697500
1$
16
19
0E
1?
18
17
1'
#700000
0$
0"
0!
06
04
03
0<
0;
09
1E
1C
1B
0?
08
07
0'
#702000
1#
15
1:
0D
#702500
1$
16
19
0E
1?
18
17
1'
#705000
0$
06
09
1E
0?
08
07
0'
#707500
1$
16
19
0E
1?
18
17
1'
#708000
0#
05
0:
1D
#710000
0$
1"
06
14
1;
09
1E
0C
0?
08
07
0'
#712500
1$
16
19
0E
1?
18
17
1'
#714000
1#
15
1:
0D
#715000
0$
06
09
1E
0?
08
07
0'
#717500
1$
1!
16
13
1<
19
0E
0B
1?
18
17
1'
#720000
0$
0#
0"
06
05
04
0;
0:
09
1E
1D
1C
0?
08
07
0'
#722500
1$
16
19
0E
1?
18
17
1'
#725000
0$
06
09
1E
0?
08
07
0'
#726000
1#
15
1:
0D
#727500
1$
16
19
0E
1?
18
17
1'
#730000
0$
1"
06
14
1;
09
1E
0C
0?
08
07
0'
#732000
0#
05
0:
1D
#732500
1$
16
19
0E
1?
18
17
1'
#735000
0$
0!
06
03
0<
09
1E
1B
0?
08
07
0'
#737500
1$
16
19
0E
1?
18
17
1'
#738000
1#
15
1:
0D
#740000
0$
0"
06
04
0;
09
1E
1C
0?
08
07
0'
#742500
1$
16
19
0E
1?
18
17
1'
#744000
0#
05
0:
1D
#745000
0$
06
09
1E
0?
08
07
0'
#747500
1$
16
19
0E
1?
18
17
1'
#750000
0$
1#
1"
06
15
14
1;
1:
09
1E
0D
0C
0?
08
07
0'
#752500
1$
1!
16
13
1<
19
0E
0B
1?
18
17
1'
#755000
0$
06
09
1E
0?
08
07
0'
#756000
0#
05
0:
1D
#757500
1$
16
19
0E
1?
18
17
1'
#760000
0$
0"
06
04
0;
09
1E
1C
0?
08
07
0'
#762000
1#
15
1:
0D
#762500
1$
16
19
0E
1?
18
17
1'
#765000
0$
06
09
1E
0?
08
07
0'
#767500
1$
16
19
0E
1?
18
17
1'
#768000
0#
05
0:
1D
#770000
0$
1"
0!
06
14
03
0<
1;
09
1E
0C
1B
0?
08
07
0'
#772500
1$
16
19
0E
1?
18
17
1'
#774000
1#
15
1:
0D
#775000
0$
06
09
1E
0?
08
07
0'
#777500
1$
16
19
0E
1?
18
17
1'
#780000
0$
0#
0"
06
05
04
0;
0:
09
1E
1D
1C
0?
08
07
0'
#782500
1$
16
19
0E
1?
18
17
1'
#785000
0$
06
09
1E
0?
08
07
0'
#786000
1#
15
1:
0D
#787500
1$
1!
16
13
1<
19
0E
0B
1?
18
17
1'
#790000
0$
1"
06
14
1;
09
1E
0C
0?
08
07
0'
#792000
0#
05
0:
1D
#792500
1$
16
19
0E
1?
18
17
1'
#795000
0$
06
09
1E
0?
08
07
0'
#797500
1$
16
19
0E
1?
18
17
1'
#798000
1#
15
1:
0D
#800000
0$
0"
06
04
0;
09
1E
1C
0?
08
07
0'
#802500
1$
16
19
0E
1?
18
17
1'
#804000
0#
05
0:
1D
#805000
0$
0!
06
03
0<
09
1E
1B
0?
08
07
0'
#807500
1$
16
19
0E
1?
18
17
1'
#810000
0$
1#
1"
06
15
14
1;
1:
09
1E
0D
0C
0?
08
07
0'
#812500
1$
16
19
0E
1?
18
17
1'
#815000
0$
06
09
1E
0?
08
07
0'
#816000
0#
05
0:
1D
#817500
1$
16
19
0E
1?
18
17
1'
#820000
0$
0"
06
04
0;
09
1E
1C
0?
08
07
0'
#822000
1#
15
1:
0D
#822500
1$
1!
16
13
1<
19
0E
0B
1?
18
17
1'
#825000
0$
06
09
1E
0?
08
07
0'
#827500
1$
16
19
0E
1?
18
17
1'
#828000
0#
05
0:
1D
#830000
0$
1"
06
14
1;
09
1E
0C
0?
08
07
0'
#832500
1$
16
19
0E
1?
18
17
1'
#834000
1#
15
1:
0D
#835000
0$
06
09
1E
0?
08
07
0'
#837500
1$
16
19
0E
1?
18
17
1'
#840000
0$
0#
0"
0!
06
05
04
03
0<
0;
0:
09
1E
1D
1C
1B
0?
08
07
0'
#842500
1$
16
19
0E
1?
18
17
1'
#845000
0$
06
09
1E
0?
08
07
0'
#846000
1#
15
1:
0D
#847500
1$
16
19
0E
1?
18
17
1'
#850000
0$
1"
06
14
1;
09
1E
0C
0?
08
07
0'
#852000
0#
05
0:
1D
#852500
1$
16
19
0E
1?
18
17
1'
#855000
0$
06
09
1E
0?
08
07
0'
#857500
1$
1!
16
13
1<
19
0E
0B
1?
18
17
1'
#858000
1#
15
1:
0D
#860000
0$
0"
06
04
0;
09
1E
1C
0?
08
07
0'
#862500
1$
16
19
0E
1?
18
17
1'
#864000
0#
05
0:
1D
#865000
0$
06
09
1E
0?
08
07
0'
#867500
1$
16
19
0E
1?
18
17
1'
#870000
0$
1#
1"
06
15
14
1;
1:
09
1E
0D
0C
0?
08
07
0'
#872500
1$
16
19
0E
1?
18
17
1'
#875000
0$
0!
06
03
0<
09
1E
1B
0?
08
07
0'
#876000
0#
05
0:
1D
#877500
1$
16
19
0E
1?
18
17
1'
#880000
0$
0"
06
04
0;
09
1E
1C
0?
08
07
0'
#882000
1#
15
1:
0D
#882500
1$
16
19
0E
1?
18
17
1'
#885000
0$
06
09
1E
0?
08
07
0'
#887500
1$
16
19
0E
1?
18
17
1'
#888000
0#
05
0:
1D
#890000
0$
1"
06
14
1;
09
1E
0C
0?
08
07
0'
#892500
1$
1!
16
13
1<
19
0E
0B
1?
18
17
1'
#894000
1#
15
1:
0D
#895000
0$
06
09
1E
0?
08
07
0'
#897500
1$
16
19
0E
1?
18
17
1'
#900000
0$
0#
0"
06
05
04
0;
0:
09
1E
1D
1C
0?
08
07
0'
#902500
1$
16
19
0E
1?
18
17
1'
#905000
0$
06
09
1E
0?
08
07
0'
#906000
1#
15
1:
0D
#907500
1$
16
19
0E
1?
18
17
1'
#910000
0$
1"
0!
06
14
03
0<
1;
09
1E
0C
1B
0?
08
07
0'
#912000
0#
05
0:
1D
#912500
1$
16
19
0E
1?
18
17
1'
#915000
0$
06
09
1E
0?
08
07
0'
#917500
1$
16
19
0E
1?
18
17
1'
#918000
1#
15
1:
0D
#920000
0$
0"
06
04
0;
09
1E
1C
0?
08
07
0'
#922500
1$
16
19
0E
1?
18
17
1'
#924000
0#
05
0:
1D
#925000
0$
06
09
1E
0?
08
07
0'
#927500
1$
1!
16
13
1<
19
0E
0B
1?
18
17
1'
#930000
0$
1#
1"
06
15
14
1;
1:
09
1E
0D
0C
0?
08
07
0'
#932500
1$
16
19
0E
1?
18
17
1'
#935000
0$
06
09
1E
0?
08
07
0'
#936000
0#
05
0:
1D
#937500
1$
16
19
0E
1?
18
17
1'
#940000
0$
0"
06
04
0;
09
1E
1C
0?
08
07
0'
#942000
1#
15
1:
0D
#942500
1$
16
19
0E
1?
18
17
1'
#945000
0$
0!
06
03
0<
09
1E
1B
0?
08
07
0'
#947500
1$
16
19
0E
1?
18
17
1'
#948000
0#
05
0:
1D
#950000
0$
1"
06
14
1;
09
1E
0C
0?
08
07
0'
#952500
1$
16
19
0E
1?
18
17
1'
#954000
1#
15
1:
0D
#955000
0$
06
09
1E
0?
08
07
0'
#957500
1$
16
19
0E
1?
18
17
1'
#960000
0$
0#
0"
06
05
04
0;
0:
09
1E
1D
1C
0?
08
07
0'
#962500
1$
1!
16
13
1<
19
0E
0B
1?
18
17
1'
#965000
0$
06
09
1E
0?
08
07
0'
#966000
1#
15
1:
0D
#967500
1$
16
19
0E
1?
18
17
1'
#970000
0$
1"
06
14
1;
09
1E
0C
0?
08
07
0'
#972000
0#
05
0:
1D
#972500
1$
16
19
0E
1?
18
17
1'
#975000
0$
06
09
1E
0?
08
07
0'
#977500
1$
16
19
0E
1?
18
17
1'
#978000
1#
15
1:
0D
#980000
0$
0"
0!
06
04
03
0<
0;
09
1E
1C
1B
0?
08
07
0'
#982500
1$
16
19
0E
1?
18
17
1'
#984000
0#
05
0:
1D
#985000
0$
06
09
1E
0?
08
07
0'
#987500
1$
16
19
0E
1?
18
17
1'
#990000
0$
1#
1"
06
15
14
1;
1:
09
1E
0D
0C
0?
08
07
0'
#992500
1$
16
19
0E
1?
18
17
1'
#995000
0$
06
09
1E
0?
08
07
0'
#996000
0#
05
0:
1D
#997500
1$
1!
16
13
1<
19
0E
0B
1?
18
17
1'
