somador/simulation/qsim/somador.msim.vcd
$comment
	File created using the following command:
		vcd file somador.msim.vcd -direction
$end
$date
	Fri Oct 26 11:20:31 2018
$end
$version
	ModelSim Version 10.5b
$end
$timescale
	1ps
$end

$scope module somador_vhd_vec_tst $end
$var wire 1 ! carry_out $end
$var wire 1 " Entrada [15] $end
$var wire 1 # Entrada [14] $end
$var wire 1 $ Entrada [13] $end
$var wire 1 % Entrada [12] $end
$var wire 1 & Entrada [11] $end
$var wire 1 ' Entrada [10] $end
$var wire 1 ( Entrada [9] $end
$var wire 1 ) Entrada [8] $end
$var wire 1 * Entrada [7] $end
$var wire 1 + Entrada [6] $end
$var wire 1 , Entrada [5] $end
$var wire 1 - Entrada [4] $end
$var wire 1 . Entrada [3] $end
$var wire 1 / Entrada [2] $end
$var wire 1 0 Entrada [1] $end
$var wire 1 1 Entrada [0] $end
$var wire 1 2 Saida [15] $end
$var wire 1 3 Saida [14] $end
$var wire 1 4 Saida [13] $end
$var wire 1 5 Saida [12] $end
$var wire 1 6 Saida [11] $end
$var wire 1 7 Saida [10] $end
$var wire 1 8 Saida [9] $end
$var wire 1 9 Saida [8] $end
$var wire 1 : Saida [7] $end
$var wire 1 ; Saida [6] $end
$var wire 1 < Saida [5] $end
$var wire 1 = Saida [4] $end
$var wire 1 > Saida [3] $end
$var wire 1 ? Saida [2] $end
$var wire 1 @ Saida [1] $end
$var wire 1 A Saida [0] $end

$scope module i1 $end
$var wire 1 B gnd $end
$var wire 1 C vcc $end
$var wire 1 D unknown $end
$var wire 1 E devoe $end
$var wire 1 F devclrn $end
$var wire 1 G devpor $end
$var wire 1 H ww_devoe $end
$var wire 1 I ww_devclrn $end
$var wire 1 J ww_devpor $end
$var wire 1 K ww_Entrada [15] $end
$var wire 1 L ww_Entrada [14] $end
$var wire 1 M ww_Entrada [13] $end
$var wire 1 N ww_Entrada [12] $end
$var wire 1 O ww_Entrada [11] $end
$var wire 1 P ww_Entrada [10] $end
$var wire 1 Q ww_Entrada [9] $end
$var wire 1 R ww_Entrada [8] $end
$var wire 1 S ww_Entrada [7] $end
$var wire 1 T ww_Entrada [6] $end
$var wire 1 U ww_Entrada [5] $end
$var wire 1 V ww_Entrada [4] $end
$var wire 1 W ww_Entrada [3] $end
$var wire 1 X ww_Entrada [2] $end
$var wire 1 Y ww_Entrada [1] $end
$var wire 1 Z ww_Entrada [0] $end
$var wire 1 [ ww_carry_out $end
$var wire 1 \ ww_Saida [15] $end
$var wire 1 ] ww_Saida [14] $end
$var wire 1 ^ ww_Saida [13] $end
$var wire 1 _ ww_Saida [12] $end
$var wire 1 ` ww_Saida [11] $end
$var wire 1 a ww_Saida [10] $end
$var wire 1 b ww_Saida [9] $end
$var wire 1 c ww_Saida [8] $end
$var wire 1 d ww_Saida [7] $end
$var wire 1 e ww_Saida [6] $end
$var wire 1 f ww_Saida [5] $end
$var wire 1 g ww_Saida [4] $end
$var wire 1 h ww_Saida [3] $end
$var wire 1 i ww_Saida [2] $end
$var wire 1 j ww_Saida [1] $end
$var wire 1 k ww_Saida [0] $end
$var wire 1 l \carry_out~output_o\ $end
$var wire 1 m \Saida[0]~output_o\ $end
$var wire 1 n \Saida[1]~output_o\ $end
$var wire 1 o \Saida[2]~output_o\ $end
$var wire 1 p \Saida[3]~output_o\ $end
$var wire 1 q \Saida[4]~output_o\ $end
$var wire 1 r \Saida[5]~output_o\ $end
$var wire 1 s \Saida[6]~output_o\ $end
$var wire 1 t \Saida[7]~output_o\ $end
$var wire 1 u \Saida[8]~output_o\ $end
$var wire 1 v \Saida[9]~output_o\ $end
$var wire 1 w \Saida[10]~output_o\ $end
$var wire 1 x \Saida[11]~output_o\ $end
$var wire 1 y \Saida[12]~output_o\ $end
$var wire 1 z \Saida[13]~output_o\ $end
$var wire 1 { \Saida[14]~output_o\ $end
$var wire 1 | \Saida[15]~output_o\ $end
$var wire 1 } \Entrada[2]~input_o\ $end
$var wire 1 ~ \Entrada[3]~input_o\ $end
$var wire 1 !! \Entrada[4]~input_o\ $end
$var wire 1 "! \Entrada[5]~input_o\ $end
$var wire 1 #! \Entrada[6]~input_o\ $end
$var wire 1 $! \Entrada[7]~input_o\ $end
$var wire 1 %! \carry~0_combout\ $end
$var wire 1 &! \Entrada[8]~input_o\ $end
$var wire 1 '! \Entrada[9]~input_o\ $end
$var wire 1 (! \Entrada[10]~input_o\ $end
$var wire 1 )! \Entrada[11]~input_o\ $end
$var wire 1 *! \Entrada[12]~input_o\ $end
$var wire 1 +! \carry~1_combout\ $end
$var wire 1 ,! \Entrada[13]~input_o\ $end
$var wire 1 -! \Entrada[14]~input_o\ $end
$var wire 1 .! \Entrada[15]~input_o\ $end
$var wire 1 /! \carry~2_combout\ $end
$var wire 1 0! \Entrada[0]~input_o\ $end
$var wire 1 1! \Entrada[1]~input_o\ $end
$var wire 1 2! \soma~0_combout\ $end
$var wire 1 3! \soma~1_combout\ $end
$var wire 1 4! \soma~2_combout\ $end
$var wire 1 5! \soma~3_combout\ $end
$var wire 1 6! \soma~4_combout\ $end
$var wire 1 7! \soma~5_combout\ $end
$var wire 1 8! \soma~6_combout\ $end
$var wire 1 9! \soma~7_combout\ $end
$var wire 1 :! \soma~8_combout\ $end
$var wire 1 ;! \soma~9_combout\ $end
$var wire 1 <! \soma~10_combout\ $end
$var wire 1 =! \soma~11_combout\ $end
$var wire 1 >! \soma~12_combout\ $end
$var wire 1 ?! \ALT_INV_Entrada[15]~input_o\ $end
$var wire 1 @! \ALT_INV_Entrada[14]~input_o\ $end
$var wire 1 A! \ALT_INV_Entrada[13]~input_o\ $end
$var wire 1 B! \ALT_INV_Entrada[12]~input_o\ $end
$var wire 1 C! \ALT_INV_Entrada[11]~input_o\ $end
$var wire 1 D! \ALT_INV_Entrada[10]~input_o\ $end
$var wire 1 E! \ALT_INV_Entrada[9]~input_o\ $end
$var wire 1 F! \ALT_INV_Entrada[8]~input_o\ $end
$var wire 1 G! \ALT_INV_Entrada[7]~input_o\ $end
$var wire 1 H! \ALT_INV_Entrada[6]~input_o\ $end
$var wire 1 I! \ALT_INV_Entrada[5]~input_o\ $end
$var wire 1 J! \ALT_INV_Entrada[4]~input_o\ $end
$var wire 1 K! \ALT_INV_Entrada[3]~input_o\ $end
$var wire 1 L! \ALT_INV_Entrada[2]~input_o\ $end
$var wire 1 M! \ALT_INV_carry~0_combout\ $end
$var wire 1 N! \ALT_INV_carry~1_combout\ $end
$upscope $end
$upscope $end
$enddefinitions $end
#0
$dumpvars
0!
0B
1C
xD
1E
1F
1G
1H
1I
1J
0[
0l
0m
0n
1o
0p
0q
0r
0s
0t
0u
0v
0w
0x
0y
0z
0{
0|
0}
0~
0!!
0"!
0#!
0$!
0%!
0&!
0'!
0(!
0)!
0*!
0+!
0,!
0-!
0.!
0/!
00!
01!
02!
03!
04!
05!
06!
07!
08!
09!
0:!
0;!
0<!
0=!
0>!
1?!
1@!
1A!
1B!
1C!
1D!
1E!
1F!
1G!
1H!
1I!
1J!
1K!
1L!
1M!
1N!
0"
0#
0$
0%
0&
0'
0(
0)
0*
0+
0,
0-
0.
0/
00
01
0K
0L
0M
0N
0O
0P
0Q
0R
0S
0T
0U
0V
0W
0X
0Y
0Z
0\
0]
0^
0_
0`
0a
0b
0c
0d
0e
0f
0g
0h
1i
0j
0k
02
03
04
05
06
07
08
09
0:
0;
0<
0=
0>
1?
0@
0A
$end
#40000
1"
1#
1$
1%
1&
1'
1(
1)
1*
1+
1,
1-
1.
1/
10
11
1Z
1Y
1X
1W
1V
1U
1T
1S
1R
1Q
1P
1O
1N
1M
1L
1K
1.!
1-!
1,!
1*!
1)!
1(!
1'!
1&!
1$!
1#!
1"!
1!!
1~
1}
11!
10!
0L!
0K!
0J!
0I!
0H!
0G!
0F!
0E!
0D!
0C!
0B!
0A!
0@!
0?!
1<!
1=!
1>!
17!
18!
19!
1:!
1;!
1%!
0M!
1m
1n
0o
1+!
07!
08!
09!
0:!
0;!
1k
1j
0N!
0i
1A
1@
1y
1x
1w
1v
1u
1|
1{
1z
0?
1/!
0<!
0=!
0>!
1_
1`
1a
1b
1c
1\
1]
1^
19
18
17
16
15
14
13
12
0y
0x
0w
0v
0u
0_
0`
0a
0b
0c
09
08
07
06
05
0|
0{
0z
1l
0\
0]
0^
1[
04
03
02
1!
#80000
0"
0#
0$
0%
0&
0'
0(
0)
0*
0+
0,
0-
0.
0/
00
01
0Z
0Y
0X
0W
0V
0U
0T
0S
0R
0Q
0P
0O
0N
0M
0L
0K
0.!
0-!
0,!
0*!
0)!
0(!
0'!
0&!
0$!
0#!
0"!
0!!
0~
0}
01!
00!
1L!
1K!
1J!
1I!
1H!
1G!
1F!
1E!
1D!
1C!
1B!
1A!
1@!
1?!
0/!
1<!
0+!
17!
0%!
1M!
1N!
0m
0n
1o
0<!
07!
0k
0j
1i
0A
0@
1u
1z
0l
1?
1c
1^
0[
19
14
0!
0u
0z
0c
0^
09
04
#120000
1"
1#
1$
1%
1&
1'
1(
1)
1*
1+
1,
1-
1.
1/
10
11
1Z
1Y
1X
1W
1V
1U
1T
1S
1R
1Q
1P
1O
1N
1M
1L
1K
1.!
1-!
1,!
1*!
1)!
1(!
1'!
1&!
1$!
1#!
1"!
1!!
1~
1}
11!
10!
0L!
0K!
0J!
0I!
0H!
0G!
0F!
0E!
0D!
0C!
0B!
0A!
0@!
0?!
1<!
1=!
1>!
17!
18!
19!
1:!
1;!
1%!
0M!
1m
1n
0o
1+!
07!
08!
09!
0:!
0;!
1k
1j
0N!
0i
1A
1@
1y
1x
1w
1v
1u
1|
1{
1z
0?
1/!
0<!
0=!
0>!
1_
1`
1a
1b
1c
1\
1]
1^
19
18
17
16
15
14
13
12
0y
0x
0w
0v
0u
0_
0`
0a
0b
0c
09
08
07
06
05
0|
0{
0z
1l
0\
0]
0^
1[
04
03
02
1!
#160000
0"
0#
0$
0%
0&
0'
0(
0)
0*
0+
0,
0-
0.
0/
00
01
0Z
0Y
0X
0W
0V
0U
0T
0S
0R
0Q
0P
0O
0N
0M
0L
0K
0.!
0-!
0,!
0*!
0)!
0(!
0'!
0&!
0$!
0#!
0"!
0!!
0~
0}
01!
00!
1L!
1K!
1J!
1I!
1H!
1G!
1F!
1E!
1D!
1C!
1B!
1A!
1@!
1?!
0/!
1<!
0+!
17!
0%!
1M!
1N!
0m
0n
1o
0<!
07!
0k
0j
1i
0A
0@
1u
1z
0l
1?
1c
1^
0[
19
14
0!
0u
0z
0c
0^
09
04
#200000
1"
1#
1$
1%
1&
1'
1(
1)
1*
1+
1,
1-
1.
1/
10
11
1Z
1Y
1X
1W
1V
1U
1T
1S
1R
1Q
1P
1O
1N
1M
1L
1K
1.!
1-!
1,!
1*!
1)!
1(!
1'!
1&!
1$!
1#!
1"!
1!!
1~
1}
11!
10!
0L!
0K!
0J!
0I!
0H!
0G!
0F!
0E!
0D!
0C!
0B!
0A!
0@!
0?!
1<!
1=!
1>!
17!
18!
19!
1:!
1;!
1%!
0M!
1m
1n
0o
1+!
07!
08!
09!
0:!
0;!
1k
1j
0N!
0i
1A
1@
1y
1x
1w
1v
1u
1|
1{
1z
0?
1/!
0<!
0=!
0>!
1_
1`
1a
1b
1c
1\
1]
1^
19
18
17
16
15
14
13
12
0y
0x
0w
0v
0u
0_
0`
0a
0b
0c
09
08
07
06
05
0|
0{
0z
1l
0\
0]
0^
1[
04
03
02
1!
#240000
0"
0#
0$
0%
0&
0'
0(
0)
0*
0+
0,
0-
0.
0/
00
01
0Z
0Y
0X
0W
0V
0U
0T
0S
0R
0Q
0P
0O
0N
0M
0L
0K
0.!
0-!
0,!
0*!
0)!
0(!
0'!
0&!
0$!
0#!
0"!
0!!
0~
0}
01!
00!
1L!
1K!
1J!
1I!
1H!
1G!
1F!
1E!
1D!
1C!
1B!
1A!
1@!
1?!
0/!
1<!
0+!
17!
0%!
1M!
1N!
0m
0n
1o
0<!
07!
0k
0j
1i
0A
0@
1u
1z
0l
1?
1c
1^
0[
19
14
0!
0u
0z
0c
0^
09
04
#280000
1"
1#
1$
1%
1&
1'
1(
1)
1*
1+
1,
1-
1.
1/
10
11
1Z
1Y
1X
1W
1V
1U
1T
1S
1R
1Q
1P
1O
1N
1M
1L
1K
1.!
1-!
1,!
1*!
1)!
1(!
1'!
1&!
1$!
1#!
1"!
1!!
1~
1}
11!
10!
0L!
0K!
0J!
0I!
0H!
0G!
0F!
0E!
0D!
0C!
0B!
0A!
0@!
0?!
1<!
1=!
1>!
17!
18!
19!
1:!
1;!
1%!
0M!
1m
1n
0o
1+!
07!
08!
09!
0:!
0;!
1k
1j
0N!
0i
1A
1@
1y
1x
1w
1v
1u
1|
1{
1z
0?
1/!
0<!
0=!
0>!
1_
1`
1a
1b
1c
1\
1]
1^
19
18
17
16
15
14
13
12
0y
0x
0w
0v
0u
0_
0`
0a
0b
0c
09
08
07
06
05
0|
0{
0z
1l
0\
0]
0^
1[
04
03
02
1!
#320000
0"
0#
0$
0%
0&
0'
0(
0)
0*
0+
0,
0-
0.
0/
00
01
0Z
0Y
0X
0W
0V
0U
0T
0S
0R
0Q
0P
0O
0N
0M
0L
0K
0.!
0-!
0,!
0*!
0)!
0(!
0'!
0&!
0$!
0#!
0"!
0!!
0~
0}
01!
00!
1L!
1K!
1J!
1I!
1H!
1G!
1F!
1E!
1D!
1C!
1B!
1A!
1@!
1?!
0/!
1<!
0+!
17!
0%!
1M!
1N!
0m
0n
1o
0<!
07!
0k
0j
1i
0A
0@
1u
1z
0l
1?
1c
1^
0[
19
14
0!
0u
0z
0c
0^
09
04
#360000
1"
1#
1$
1%
1&
1'
1(
1)
1*
1+
1,
1-
1.
1/
10
11
1Z
1Y
1X
1W
1V
1U
1T
1S
1R
1Q
1P
1O
1N
1M
1L
1K
1.!
1-!
1,!
1*!
1)!
1(!
1'!
1&!
1$!
1#!
1"!
1!!
1~
1}
11!
10!
0L!
0K!
0J!
0I!
0H!
0G!
0F!
0E!
0D!
0C!
0B!
0A!
0@!
0?!
1<!
1=!
1>!
17!
18!
19!
1:!
1;!
1%!
0M!
1m
1n
0o
1+!
07!
08!
09!
0:!
0;!
1k
1j
0N!
0i
1A
1@
1y
1x
1w
1v
1u
1|
1{
1z
0?
1/!
0<!
0=!
0>!
1_
1`
1a
1b
1c
1\
1]
1^
19
18
17
16
15
14
13
12
0y
0x
0w
0v
0u
0_
0`
0a
0b
0c
09
08
07
06
05
0|
0{
0z
1l
0\
0]
0^
1[
04
03
02
1!
#400000
0"
0#
0$
0%
0&
0'
0(
0)
0*
0+
0,
0-
0.
0/
00
01
0Z
0Y
0X
0W
0V
0U
0T
0S
0R
0Q
0P
0O
0N
0M
0L
0K
0.!
0-!
0,!
0*!
0)!
0(!
0'!
0&!
0$!
0#!
0"!
0!!
0~
0}
01!
00!
1L!
1K!
1J!
1I!
1H!
1G!
1F!
1E!
1D!
1C!
1B!
1A!
1@!
1?!
0/!
1<!
0+!
17!
0%!
1M!
1N!
0m
0n
1o
0<!
07!
0k
0j
1i
0A
0@
1u
1z
0l
1?
1c
1^
0[
19
14
0!
0u
0z
0c
0^
09
04
#440000
1"
1#
1$
1%
1&
1'
1(
1)
1*
1+
1,
1-
1.
1/
10
11
1Z
1Y
1X
1W
1V
1U
1T
1S
1R
1Q
1P
1O
1N
1M
1L
1K
1.!
1-!
1,!
1*!
1)!
1(!
1'!
1&!
1$!
1#!
1"!
1!!
1~
1}
11!
10!
0L!
0K!
0J!
0I!
0H!
0G!
0F!
0E!
0D!
0C!
0B!
0A!
0@!
0?!
1<!
1=!
1>!
17!
18!
19!
1:!
1;!
1%!
0M!
1m
1n
0o
1+!
07!
08!
09!
0:!
0;!
1k
1j
0N!
0i
1A
1@
1y
1x
1w
1v
1u
1|
1{
1z
0?
1/!
0<!
0=!
0>!
1_
1`
1a
1b
1c
1\
1]
1^
19
18
17
16
15
14
13
12
0y
0x
0w
0v
0u
0_
0`
0a
0b
0c
09
08
07
06
05
0|
0{
0z
1l
0\
0]
0^
1[
04
03
02
1!
#480000
0"
0#
0$
0%
0&
0'
0(
0)
0*
0+
0,
0-
0.
0/
00
01
0Z
0Y
0X
0W
0V
0U
0T
0S
0R
0Q
0P
0O
0N
0M
0L
0K
0.!
0-!
0,!
0*!
0)!
0(!
0'!
0&!
0$!
0#!
0"!
0!!
0~
0}
01!
00!
1L!
1K!
1J!
1I!
1H!
1G!
1F!
1E!
1D!
1C!
1B!
1A!
1@!
1?!
0/!
1<!
0+!
17!
0%!
1M!
1N!
0m
0n
1o
0<!
07!
0k
0j
1i
0A
0@
1u
1z
0l
1?
1c
1^
0[
19
14
0!
0u
0z
0c
0^
09
04
#520000
1"
1#
1$
1%
1&
1'
1(
1)
1*
1+
1,
1-
1.
1/
10
11
1Z
1Y
1X
1W
1V
1U
1T
1S
1R
1Q
1P
1O
1N
1M
1L
1K
1.!
1-!
1,!
1*!
1)!
1(!
1'!
1&!
1$!
1#!
1"!
1!!
1~
1}
11!
10!
0L!
0K!
0J!
0I!
0H!
0G!
0F!
0E!
0D!
0C!
0B!
0A!
0@!
0?!
1<!
1=!
1>!
17!
18!
19!
1:!
1;!
1%!
0M!
1m
1n
0o
1+!
07!
08!
09!
0:!
0;!
1k
1j
0N!
0i
1A
1@
1y
1x
1w
1v
1u
1|
1{
1z
0?
1/!
0<!
0=!
0>!
1_
1`
1a
1b
1c
1\
1]
1^
19
18
17
16
15
14
13
12
0y
0x
0w
0v
0u
0_
0`
0a
0b
0c
09
08
07
06
05
0|
0{
0z
1l
0\
0]
0^
1[
04
03
02
1!
#560000
0"
0#
0$
0%
0&
0'
0(
0)
0*
0+
0,
0-
0.
0/
00
01
0Z
0Y
0X
0W
0V
0U
0T
0S
0R
0Q
0P
0O
0N
0M
0L
0K
0.!
0-!
0,!
0*!
0)!
0(!
0'!
0&!
0$!
0#!
0"!
0!!
0~
0}
01!
00!
1L!
1K!
1J!
1I!
1H!
1G!
1F!
1E!
1D!
1C!
1B!
1A!
1@!
1?!
0/!
1<!
0+!
17!
0%!
1M!
1N!
0m
0n
1o
0<!
07!
0k
0j
1i
0A
0@
1u
1z
0l
1?
1c
1^
0[
19
14
0!
0u
0z
0c
0^
09
04
#600000
1"
1#
1$
1%
1&
1'
1(
1)
1*
1+
1,
1-
1.
1/
10
11
1Z
1Y
1X
1W
1V
1U
1T
1S
1R
1Q
1P
1O
1N
1M
1L
1K
1.!
1-!
1,!
1*!
1)!
1(!
1'!
1&!
1$!
1#!
1"!
1!!
1~
1}
11!
10!
0L!
0K!
0J!
0I!
0H!
0G!
0F!
0E!
0D!
0C!
0B!
0A!
0@!
0?!
1<!
1=!
1>!
17!
18!
19!
1:!
1;!
1%!
0M!
1m
1n
0o
1+!
07!
08!
09!
0:!
0;!
1k
1j
0N!
0i
1A
1@
1y
1x
1w
1v
1u
1|
1{
1z
0?
1/!
0<!
0=!
0>!
1_
1`
1a
1b
1c
1\
1]
1^
19
18
17
16
15
14
13
12
0y
0x
0w
0v
0u
0_
0`
0a
0b
0c
09
08
07
06
05
0|
0{
0z
1l
0\
0]
0^
1[
04
03
02
1!
#640000
0"
0#
0$
0%
0&
0'
0(
0)
0*
0+
0,
0-
0.
0/
00
01
0Z
0Y
0X
0W
0V
0U
0T
0S
0R
0Q
0P
0O
0N
0M
0L
0K
0.!
0-!
0,!
0*!
0)!
0(!
0'!
0&!
0$!
0#!
0"!
0!!
0~
0}
01!
00!
1L!
1K!
1J!
1I!
1H!
1G!
1F!
1E!
1D!
1C!
1B!
1A!
1@!
1?!
0/!
1<!
0+!
17!
0%!
1M!
1N!
0m
0n
1o
0<!
07!
0k
0j
1i
0A
0@
1u
1z
0l
1?
1c
1^
0[
19
14
0!
0u
0z
0c
0^
09
04
#680000
1"
1#
1$
1%
1&
1'
1(
1)
1*
1+
1,
1-
1.
1/
10
11
1Z
1Y
1X
1W
1V
1U
1T
1S
1R
1Q
1P
1O
1N
1M
1L
1K
1.!
1-!
1,!
1*!
1)!
1(!
1'!
1&!
1$!
1#!
1"!
1!!
1~
1}
11!
10!
0L!
0K!
0J!
0I!
0H!
0G!
0F!
0E!
0D!
0C!
0B!
0A!
0@!
0?!
1<!
1=!
1>!
17!
18!
19!
1:!
1;!
1%!
0M!
1m
1n
0o
1+!
07!
08!
09!
0:!
0;!
1k
1j
0N!
0i
1A
1@
1y
1x
1w
1v
1u
1|
1{
1z
0?
1/!
0<!
0=!
0>!
1_
1`
1a
1b
1c
1\
1]
1^
19
18
17
16
15
14
13
12
0y
0x
0w
0v
0u
0_
0`
0a
0b
0c
09
08
07
06
05
0|
0{
0z
1l
0\
0]
0^
1[
04
03
02
1!
#720000
0"
0#
0$
0%
0&
0'
0(
0)
0*
0+
0,
0-
0.
0/
00
01
0Z
0Y
0X
0W
0V
0U
0T
0S
0R
0Q
0P
0O
0N
0M
0L
0K
0.!
0-!
0,!
0*!
0)!
0(!
0'!
0&!
0$!
0#!
0"!
0!!
0~
0}
01!
00!
1L!
1K!
1J!
1I!
1H!
1G!
1F!
1E!
1D!
1C!
1B!
1A!
1@!
1?!
0/!
1<!
0+!
17!
0%!
1M!
1N!
0m
0n
1o
0<!
07!
0k
0j
1i
0A
0@
1u
1z
0l
1?
1c
1^
0[
19
14
0!
0u
0z
0c
0^
09
04
#760000
1"
1#
1$
1%
1&
1'
1(
1)
1*
1+
1,
1-
1.
1/
10
11
1Z
1Y
1X
1W
1V
1U
1T
1S
1R
1Q
1P
1O
1N
1M
1L
1K
1.!
1-!
1,!
1*!
1)!
1(!
1'!
1&!
1$!
1#!
1"!
1!!
1~
1}
11!
10!
0L!
0K!
0J!
0I!
0H!
0G!
0F!
0E!
0D!
0C!
0B!
0A!
0@!
0?!
1<!
1=!
1>!
17!
18!
19!
1:!
1;!
1%!
0M!
1m
1n
0o
1+!
07!
08!
09!
0:!
0;!
1k
1j
0N!
0i
1A
1@
1y
1x
1w
1v
1u
1|
1{
1z
0?
1/!
0<!
0=!
0>!
1_
1`
1a
1b
1c
1\
1]
1^
19
18
17
16
15
14
13
12
0y
0x
0w
0v
0u
0_
0`
0a
0b
0c
09
08
07
06
05
0|
0{
0z
1l
0\
0]
0^
1[
04
03
02
1!
#800000
0"
0#
0$
0%
0&
0'
0(
0)
0*
0+
0,
0-
0.
0/
00
01
0Z
0Y
0X
0W
0V
0U
0T
0S
0R
0Q
0P
0O
0N
0M
0L
0K
0.!
0-!
0,!
0*!
0)!
0(!
0'!
0&!
0$!
0#!
0"!
0!!
0~
0}
01!
00!
1L!
1K!
1J!
1I!
1H!
1G!
1F!
1E!
1D!
1C!
1B!
1A!
1@!
1?!
0/!
1<!
0+!
17!
0%!
1M!
1N!
0m
0n
1o
0<!
07!
0k
0j
1i
0A
0@
1u
1z
0l
1?
1c
1^
0[
19
14
0!
0u
0z
0c
0^
09
04
#840000
1"
1#
1$
1%
1&
1'
1(
1)
1*
1+
1,
1-
1.
1/
10
11
1Z
1Y
1X
1W
1V
1U
1T
1S
1R
1Q
1P
1O
1N
1M
1L
1K
1.!
1-!
1,!
1*!
1)!
1(!
1'!
1&!
1$!
1#!
1"!
1!!
1~
1}
11!
10!
0L!
0K!
0J!
0I!
0H!
0G!
0F!
0E!
0D!
0C!
0B!
0A!
0@!
0?!
1<!
1=!
1>!
17!
18!
19!
1:!
1;!
1%!
0M!
1m
1n
0o
1+!
07!
08!
09!
0:!
0;!
1k
1j
0N!
0i
1A
1@
1y
1x
1w
1v
1u
1|
1{
1z
0?
1/!
0<!
0=!
0>!
1_
1`
1a
1b
1c
1\
1]
1^
19
18
17
16
15
14
13
12
0y
0x
0w
0v
0u
0_
0`
0a
0b
0c
09
08
07
06
05
0|
0{
0z
1l
0\
0]
0^
1[
04
03
02
1!
#880000
0"
0#
0$
0%
0&
0'
0(
0)
0*
0+
0,
0-
0.
0/
00
01
0Z
0Y
0X
0W
0V
0U
0T
0S
0R
0Q
0P
0O
0N
0M
0L
0K
0.!
0-!
0,!
0*!
0)!
0(!
0'!
0&!
0$!
0#!
0"!
0!!
0~
0}
01!
00!
1L!
1K!
1J!
1I!
1H!
1G!
1F!
1E!
1D!
1C!
1B!
1A!
1@!
1?!
0/!
1<!
0+!
17!
0%!
1M!
1N!
0m
0n
1o
0<!
07!
0k
0j
1i
0A
0@
1u
1z
0l
1?
1c
1^
0[
19
14
0!
0u
0z
0c
0^
09
04
#920000
1"
1#
1$
1%
1&
1'
1(
1)
1*
1+
1,
1-
1.
1/
10
11
1Z
1Y
1X
1W
1V
1U
1T
1S
1R
1Q
1P
1O
1N
1M
1L
1K
1.!
1-!
1,!
1*!
1)!
1(!
1'!
1&!
1$!
1#!
1"!
1!!
1~
1}
11!
10!
0L!
0K!
0J!
0I!
0H!
0G!
0F!
0E!
0D!
0C!
0B!
0A!
0@!
0?!
1<!
1=!
1>!
17!
18!
19!
1:!
1;!
1%!
0M!
1m
1n
0o
1+!
07!
08!
09!
0:!
0;!
1k
1j
0N!
0i
1A
1@
1y
1x
1w
1v
1u
1|
1{
1z
0?
1/!
0<!
0=!
0>!
1_
1`
1a
1b
1c
1\
1]
1^
19
18
17
16
15
14
13
12
0y
0x
0w
0v
0u
0_
0`
0a
0b
0c
09
08
07
06
05
0|
0{
0z
1l
0\
0]
0^
1[
04
03
02
1!
#960000
0"
0#
0$
0%
0&
0'
0(
0)
0*
0+
0,
0-
0.
0/
00
01
0Z
0Y
0X
0W
0V
0U
0T
0S
0R
0Q
0P
0O
0N
0M
0L
0K
0.!
0-!
0,!
0*!
0)!
0(!
0'!
0&!
0$!
0#!
0"!
0!!
0~
0}
01!
00!
1L!
1K!
1J!
1I!
1H!
1G!
1F!
1E!
1D!
1C!
1B!
1A!
1@!
1?!
0/!
1<!
0+!
17!
0%!
1M!
1N!
0m
0n
1o
0<!
07!
0k
0j
1i
0A
0@
1u
1z
0l
1?
1c
1^
0[
19
14
0!
0u
0z
0c
0^
09
04
