Somador16Bits/simulation/qsim/somador16Bits.msim.vcd
$comment
	File created using the following command:
		vcd file somador16Bits.msim.vcd -direction
$end
$date
	Fri Oct 26 17:59:49 2018
$end
$version
	ModelSim Version 10.5b
$end
$timescale
	1ps
$end

$scope module somador16bits_vhd_vec_tst $end
$var wire 1 ! a [15] $end
$var wire 1 " a [14] $end
$var wire 1 # a [13] $end
$var wire 1 $ a [12] $end
$var wire 1 % a [11] $end
$var wire 1 & a [10] $end
$var wire 1 ' a [9] $end
$var wire 1 ( a [8] $end
$var wire 1 ) a [7] $end
$var wire 1 * a [6] $end
$var wire 1 + a [5] $end
$var wire 1 , a [4] $end
$var wire 1 - a [3] $end
$var wire 1 . a [2] $end
$var wire 1 / a [1] $end
$var wire 1 0 a [0] $end
$var wire 1 1 b [15] $end
$var wire 1 2 b [14] $end
$var wire 1 3 b [13] $end
$var wire 1 4 b [12] $end
$var wire 1 5 b [11] $end
$var wire 1 6 b [10] $end
$var wire 1 7 b [9] $end
$var wire 1 8 b [8] $end
$var wire 1 9 b [7] $end
$var wire 1 : b [6] $end
$var wire 1 ; b [5] $end
$var wire 1 < b [4] $end
$var wire 1 = b [3] $end
$var wire 1 > b [2] $end
$var wire 1 ? b [1] $end
$var wire 1 @ b [0] $end
$var wire 1 A carry_in $end
$var wire 1 B carry_out $end
$var wire 1 C saida [15] $end
$var wire 1 D saida [14] $end
$var wire 1 E saida [13] $end
$var wire 1 F saida [12] $end
$var wire 1 G saida [11] $end
$var wire 1 H saida [10] $end
$var wire 1 I saida [9] $end
$var wire 1 J saida [8] $end
$var wire 1 K saida [7] $end
$var wire 1 L saida [6] $end
$var wire 1 M saida [5] $end
$var wire 1 N saida [4] $end
$var wire 1 O saida [3] $end
$var wire 1 P saida [2] $end
$var wire 1 Q saida [1] $end
$var wire 1 R saida [0] $end

$scope module i1 $end
$var wire 1 S gnd $end
$var wire 1 T vcc $end
$var wire 1 U unknown $end
$var wire 1 V devoe $end
$var wire 1 W devclrn $end
$var wire 1 X devpor $end
$var wire 1 Y ww_devoe $end
$var wire 1 Z ww_devclrn $end
$var wire 1 [ ww_devpor $end
$var wire 1 \ ww_carry_in $end
$var wire 1 ] ww_a [15] $end
$var wire 1 ^ ww_a [14] $end
$var wire 1 _ ww_a [13] $end
$var wire 1 ` ww_a [12] $end
$var wire 1 a ww_a [11] $end
$var wire 1 b ww_a [10] $end
$var wire 1 c ww_a [9] $end
$var wire 1 d ww_a [8] $end
$var wire 1 e ww_a [7] $end
$var wire 1 f ww_a [6] $end
$var wire 1 g ww_a [5] $end
$var wire 1 h ww_a [4] $end
$var wire 1 i ww_a [3] $end
$var wire 1 j ww_a [2] $end
$var wire 1 k ww_a [1] $end
$var wire 1 l ww_a [0] $end
$var wire 1 m ww_b [15] $end
$var wire 1 n ww_b [14] $end
$var wire 1 o ww_b [13] $end
$var wire 1 p ww_b [12] $end
$var wire 1 q ww_b [11] $end
$var wire 1 r ww_b [10] $end
$var wire 1 s ww_b [9] $end
$var wire 1 t ww_b [8] $end
$var wire 1 u ww_b [7] $end
$var wire 1 v ww_b [6] $end
$var wire 1 w ww_b [5] $end
$var wire 1 x ww_b [4] $end
$var wire 1 y ww_b [3] $end
$var wire 1 z ww_b [2] $end
$var wire 1 { ww_b [1] $end
$var wire 1 | ww_b [0] $end
$var wire 1 } ww_carry_out $end
$var wire 1 ~ ww_saida [15] $end
$var wire 1 !! ww_saida [14] $end
$var wire 1 "! ww_saida [13] $end
$var wire 1 #! ww_saida [12] $end
$var wire 1 $! ww_saida [11] $end
$var wire 1 %! ww_saida [10] $end
$var wire 1 &! ww_saida [9] $end
$var wire 1 '! ww_saida [8] $end
$var wire 1 (! ww_saida [7] $end
$var wire 1 )! ww_saida [6] $end
$var wire 1 *! ww_saida [5] $end
$var wire 1 +! ww_saida [4] $end
$var wire 1 ,! ww_saida [3] $end
$var wire 1 -! ww_saida [2] $end
$var wire 1 .! ww_saida [1] $end
$var wire 1 /! ww_saida [0] $end
$var wire 1 0! \carry_out~output_o\ $end
$var wire 1 1! \saida[0]~output_o\ $end
$var wire 1 2! \saida[1]~output_o\ $end
$var wire 1 3! \saida[2]~output_o\ $end
$var wire 1 4! \saida[3]~output_o\ $end
$var wire 1 5! \saida[4]~output_o\ $end
$var wire 1 6! \saida[5]~output_o\ $end
$var wire 1 7! \saida[6]~output_o\ $end
$var wire 1 8! \saida[7]~output_o\ $end
$var wire 1 9! \saida[8]~output_o\ $end
$var wire 1 :! \saida[9]~output_o\ $end
$var wire 1 ;! \saida[10]~output_o\ $end
$var wire 1 <! \saida[11]~output_o\ $end
$var wire 1 =! \saida[12]~output_o\ $end
$var wire 1 >! \saida[13]~output_o\ $end
$var wire 1 ?! \saida[14]~output_o\ $end
$var wire 1 @! \saida[15]~output_o\ $end
$var wire 1 A! \a[15]~input_o\ $end
$var wire 1 B! \b[15]~input_o\ $end
$var wire 1 C! \a[14]~input_o\ $end
$var wire 1 D! \b[14]~input_o\ $end
$var wire 1 E! \a[13]~input_o\ $end
$var wire 1 F! \b[13]~input_o\ $end
$var wire 1 G! \a[12]~input_o\ $end
$var wire 1 H! \b[12]~input_o\ $end
$var wire 1 I! \a[11]~input_o\ $end
$var wire 1 J! \b[11]~input_o\ $end
$var wire 1 K! \a[10]~input_o\ $end
$var wire 1 L! \b[10]~input_o\ $end
$var wire 1 M! \a[9]~input_o\ $end
$var wire 1 N! \b[9]~input_o\ $end
$var wire 1 O! \c~0_combout\ $end
$var wire 1 P! \a[8]~input_o\ $end
$var wire 1 Q! \b[8]~input_o\ $end
$var wire 1 R! \a[7]~input_o\ $end
$var wire 1 S! \b[7]~input_o\ $end
$var wire 1 T! \a[6]~input_o\ $end
$var wire 1 U! \b[6]~input_o\ $end
$var wire 1 V! \a[5]~input_o\ $end
$var wire 1 W! \b[5]~input_o\ $end
$var wire 1 X! \a[4]~input_o\ $end
$var wire 1 Y! \b[4]~input_o\ $end
$var wire 1 Z! \c~1_combout\ $end
$var wire 1 [! \a[3]~input_o\ $end
$var wire 1 \! \b[3]~input_o\ $end
$var wire 1 ]! \a[2]~input_o\ $end
$var wire 1 ^! \b[2]~input_o\ $end
$var wire 1 _! \a[1]~input_o\ $end
$var wire 1 `! \b[1]~input_o\ $end
$var wire 1 a! \a[0]~input_o\ $end
$var wire 1 b! \b[0]~input_o\ $end
$var wire 1 c! \carry_in~input_o\ $end
$var wire 1 d! \c~2_combout\ $end
$var wire 1 e! \c~3_combout\ $end
$var wire 1 f! \c~4_combout\ $end
$var wire 1 g! \c~5_combout\ $end
$var wire 1 h! \c~6_combout\ $end
$var wire 1 i! \c~7_combout\ $end
$var wire 1 j! \c~8_combout\ $end
$var wire 1 k! \c~9_combout\ $end
$var wire 1 l! \c~10_combout\ $end
$var wire 1 m! \soma~0_combout\ $end
$var wire 1 n! \soma~1_combout\ $end
$var wire 1 o! \soma~2_combout\ $end
$var wire 1 p! \soma~3_combout\ $end
$var wire 1 q! \soma~4_combout\ $end
$var wire 1 r! \soma~5_combout\ $end
$var wire 1 s! \soma~6_combout\ $end
$var wire 1 t! \soma~7_combout\ $end
$var wire 1 u! \soma~8_combout\ $end
$var wire 1 v! \soma~9_combout\ $end
$var wire 1 w! \soma~10_combout\ $end
$var wire 1 x! \soma~11_combout\ $end
$var wire 1 y! \soma~12_combout\ $end
$var wire 1 z! \soma~13_combout\ $end
$var wire 1 {! \c~11_combout\ $end
$var wire 1 |! \soma~14_combout\ $end
$var wire 1 }! \soma~15_combout\ $end
$var wire 1 ~! \ALT_INV_carry_in~input_o\ $end
$var wire 1 !" \ALT_INV_b[0]~input_o\ $end
$var wire 1 "" \ALT_INV_a[0]~input_o\ $end
$var wire 1 #" \ALT_INV_b[1]~input_o\ $end
$var wire 1 $" \ALT_INV_a[1]~input_o\ $end
$var wire 1 %" \ALT_INV_b[2]~input_o\ $end
$var wire 1 &" \ALT_INV_a[2]~input_o\ $end
$var wire 1 '" \ALT_INV_b[3]~input_o\ $end
$var wire 1 (" \ALT_INV_a[3]~input_o\ $end
$var wire 1 )" \ALT_INV_b[4]~input_o\ $end
$var wire 1 *" \ALT_INV_a[4]~input_o\ $end
$var wire 1 +" \ALT_INV_b[5]~input_o\ $end
$var wire 1 ," \ALT_INV_a[5]~input_o\ $end
$var wire 1 -" \ALT_INV_b[6]~input_o\ $end
$var wire 1 ." \ALT_INV_a[6]~input_o\ $end
$var wire 1 /" \ALT_INV_b[7]~input_o\ $end
$var wire 1 0" \ALT_INV_a[7]~input_o\ $end
$var wire 1 1" \ALT_INV_b[8]~input_o\ $end
$var wire 1 2" \ALT_INV_a[8]~input_o\ $end
$var wire 1 3" \ALT_INV_b[9]~input_o\ $end
$var wire 1 4" \ALT_INV_a[9]~input_o\ $end
$var wire 1 5" \ALT_INV_b[10]~input_o\ $end
$var wire 1 6" \ALT_INV_a[10]~input_o\ $end
$var wire 1 7" \ALT_INV_b[11]~input_o\ $end
$var wire 1 8" \ALT_INV_a[11]~input_o\ $end
$var wire 1 9" \ALT_INV_b[12]~input_o\ $end
$var wire 1 :" \ALT_INV_a[12]~input_o\ $end
$var wire 1 ;" \ALT_INV_b[13]~input_o\ $end
$var wire 1 <" \ALT_INV_a[13]~input_o\ $end
$var wire 1 =" \ALT_INV_b[14]~input_o\ $end
$var wire 1 >" \ALT_INV_a[14]~input_o\ $end
$var wire 1 ?" \ALT_INV_b[15]~input_o\ $end
$var wire 1 @" \ALT_INV_a[15]~input_o\ $end
$var wire 1 A" \ALT_INV_c~11_combout\ $end
$var wire 1 B" \ALT_INV_c~9_combout\ $end
$var wire 1 C" \ALT_INV_c~8_combout\ $end
$var wire 1 D" \ALT_INV_c~7_combout\ $end
$var wire 1 E" \ALT_INV_c~6_combout\ $end
$var wire 1 F" \ALT_INV_c~5_combout\ $end
$var wire 1 G" \ALT_INV_c~4_combout\ $end
$var wire 1 H" \ALT_INV_c~3_combout\ $end
$var wire 1 I" \ALT_INV_c~2_combout\ $end
$var wire 1 J" \ALT_INV_c~1_combout\ $end
$var wire 1 K" \ALT_INV_c~0_combout\ $end
$upscope $end
$upscope $end
$enddefinitions $end
#0
$dumpvars
0A
0B
0S
1T
xU
1V
1W
1X
1Y
1Z
1[
0\
0}
00!
01!
02!
03!
04!
05!
06!
07!
08!
09!
0:!
0;!
0<!
0=!
0>!
0?!
0@!
0A!
0B!
0C!
0D!
0E!
0F!
0G!
0H!
0I!
0J!
0K!
0L!
0M!
0N!
0O!
0P!
0Q!
0R!
0S!
0T!
0U!
0V!
0W!
0X!
0Y!
0Z!
0[!
0\!
0]!
0^!
0_!
0`!
0a!
0b!
0c!
0d!
0e!
0f!
1g!
0h!
0i!
1j!
0k!
0l!
0m!
0n!
0o!
0p!
0q!
0r!
0s!
0t!
0u!
0v!
0w!
0x!
0y!
0z!
0{!
0|!
0}!
1~!
1!"
1""
1#"
1$"
1%"
1&"
1'"
1("
1)"
1*"
1+"
1,"
1-"
1."
1/"
10"
11"
12"
13"
14"
15"
16"
17"
18"
19"
1:"
1;"
1<"
1="
1>"
1?"
1@"
1A"
1B"
0C"
1D"
1E"
0F"
1G"
1H"
1I"
1J"
1K"
0!
0"
0#
0$
0%
0&
0'
0(
0)
0*
0+
0,
0-
0.
0/
00
01
02
03
04
05
06
07
08
09
0:
0;
0<
0=
0>
0?
0@
0]
0^
0_
0`
0a
0b
0c
0d
0e
0f
0g
0h
0i
0j
0k
0l
0m
0n
0o
0p
0q
0r
0s
0t
0u
0v
0w
0x
0y
0z
0{
0|
0~
0!!
0"!
0#!
0$!
0%!
0&!
0'!
0(!
0)!
0*!
0+!
0,!
0-!
0.!
0/!
0C
0D
0E
0F
0G
0H
0I
0J
0K
0L
0M
0N
0O
0P
0Q
0R
$end
#20000
1A
1\
1c!
0~!
1m!
11!
1/!
1R
#30000
1!
1"
1#
1$
1%
1&
1'
1(
1)
1*
1+
1,
1-
1.
1/
10
1l
1k
1j
1i
1h
1g
1f
1e
1d
1c
1b
1a
1`
1_
1^
1]
1A!
1C!
1E!
1G!
1I!
1K!
1M!
1P!
1R!
1T!
1V!
1X!
1[!
1]!
1_!
1a!
0""
0$"
0&"
0("
0*"
0,"
0."
00"
02"
04"
06"
08"
0:"
0<"
0>"
0@"
1{!
1}!
1y!
1z!
1w!
1x!
1h!
1t!
1u!
1r!
1s!
1e!
1o!
1p!
1d!
0m!
0I"
0H"
0E"
0A"
1|!
1v!
1f!
0o!
0p!
0G"
01!
14!
13!
17!
16!
19!
18!
1<!
1;!
1>!
1=!
1@!
0g!
0r!
0s!
0/!
1,!
1-!
1)!
1*!
1'!
1(!
1$!
1%!
1"!
1#!
1~
1F"
0R
1P
1O
1M
1L
1K
1J
1H
1G
1F
1E
1C
04!
03!
1:!
1?!
1i!
0t!
0u!
0v!
0,!
0-!
1&!
1!!
0D"
0P
0O
1I
1D
07!
06!
0j!
0w!
0x!
0)!
0*!
1C"
0M
0L
0:!
09!
08!
1k!
0y!
0z!
0|!
0&!
0'!
0(!
0B"
0K
0J
0I
0<!
0;!
1l!
0}!
0$!
0%!
0H
0G
0?!
0>!
0=!
0!!
0"!
0#!
0F
0E
0D
0@!
10!
0~
1}
0C
1B
#40000
0A
0\
0c!
1~!
0d!
1m!
1n!
1I"
0f!
1o!
1p!
1q!
1G"
12!
11!
1g!
1r!
1s!
1.!
1/!
0F"
1R
1Q
15!
14!
13!
0i!
1t!
1u!
1v!
1+!
1,!
1-!
1D"
1P
1O
1N
17!
16!
1j!
1w!
1x!
1)!
1*!
0C"
1M
1L
1:!
19!
18!
0k!
1y!
1z!
1|!
1&!
1'!
1(!
1B"
1K
1J
1I
1<!
1;!
0l!
1}!
1$!
1%!
1H
1G
1?!
1>!
1=!
1!!
1"!
1#!
1F
1E
1D
1@!
00!
1~
0}
1C
0B
#60000
1A
0!
0"
0#
0$
0%
0&
0'
0(
0)
0*
0+
0,
0-
0.
0/
00
11
12
13
14
15
16
17
18
19
1:
1;
1<
1=
1>
1?
1@
1\
0l
0k
0j
0i
0h
0g
0f
0e
0d
0c
0b
0a
0`
0_
0^
0]
1|
1{
1z
1y
1x
1w
1v
1u
1t
1s
1r
1q
1p
1o
1n
1m
1B!
1D!
1F!
1H!
1J!
1L!
1N!
1Q!
1S!
1U!
1W!
1Y!
1\!
1^!
1`!
1b!
0A!
0C!
0E!
0G!
0I!
0K!
0M!
0P!
0R!
0T!
0V!
0X!
0[!
0]!
0_!
0a!
1c!
0~!
1""
1$"
1&"
1("
1*"
1,"
1."
10"
12"
14"
16"
18"
1:"
1<"
1>"
1@"
0!"
0#"
0%"
0'"
0)"
0+"
0-"
0/"
01"
03"
05"
07"
09"
0;"
0="
0?"
1d!
0m!
0n!
0I"
1f!
0o!
0p!
0q!
0G"
02!
01!
0g!
0r!
0s!
0.!
0/!
1F"
0R
0Q
05!
04!
03!
1i!
0t!
0u!
0v!
0+!
0,!
0-!
0D"
0P
0O
0N
07!
06!
0j!
0w!
0x!
0)!
0*!
1C"
0M
0L
0:!
09!
08!
1k!
0y!
0z!
0|!
0&!
0'!
0(!
0B"
0K
0J
0I
0<!
0;!
1l!
0}!
0$!
0%!
0H
0G
0?!
0>!
0=!
0!!
0"!
0#!
0F
0E
0D
0@!
10!
0~
1}
0C
1B
#80000
0A
0\
0c!
1~!
0d!
1m!
1n!
1I"
0f!
1o!
1p!
1q!
1G"
12!
11!
1g!
1r!
1s!
1.!
1/!
0F"
1R
1Q
15!
14!
13!
0i!
1t!
1u!
1v!
1+!
1,!
1-!
1D"
1P
1O
1N
17!
16!
1j!
1w!
1x!
1)!
1*!
0C"
1M
1L
1:!
19!
18!
0k!
1y!
1z!
1|!
1&!
1'!
1(!
1B"
1K
1J
1I
1<!
1;!
0l!
1}!
1$!
1%!
1H
1G
1?!
1>!
1=!
1!!
1"!
1#!
1F
1E
1D
1@!
00!
1~
0}
1C
0B
#90000
1!
1"
1#
1$
1%
1&
1'
1(
1)
1*
1+
1,
1-
1.
1/
10
1l
1k
1j
1i
1h
1g
1f
1e
1d
1c
1b
1a
1`
1_
1^
1]
1A!
1C!
1E!
1G!
1I!
1K!
1M!
1P!
1R!
1T!
1V!
1X!
1[!
1]!
1_!
1a!
0""
0$"
0&"
0("
0*"
0,"
0."
00"
02"
04"
06"
08"
0:"
0<"
0>"
0@"
1l!
0{!
1k!
0y!
0|!
0j!
0w!
1O!
0h!
1i!
0t!
0v!
0g!
0r!
1Z!
0e!
1f!
0o!
0q!
1d!
0m!
0I"
0G"
1H"
0J"
1F"
0D"
1E"
0K"
1C"
0B"
1A"
1y!
1|!
1w!
0i!
1t!
1v!
1r!
0f!
1o!
1q!
1G"
1D"
01!
05!
03!
06!
0:!
08!
0;!
0?!
0=!
10!
0/!
0+!
0-!
0*!
0&!
0(!
0%!
0!!
0#!
1}
0R
0P
0N
0M
0K
0I
0H
0F
0D
1B
15!
13!
16!
1:!
18!
1;!
1?!
1=!
1+!
1-!
1*!
1&!
1(!
1%!
1!!
1#!
1P
1N
1M
1K
1I
1H
1F
1D
#100000
1A
1\
1c!
0~!
1m!
11!
1/!
1R
#120000
0A
0!
0"
0#
0$
0%
0&
0'
0(
0)
0*
0+
0,
0-
0.
0/
00
01
02
03
04
05
06
07
08
09
0:
0;
0<
0=
0>
0?
0@
0\
0l
0k
0j
0i
0h
0g
0f
0e
0d
0c
0b
0a
0`
0_
0^
0]
0|
0{
0z
0y
0x
0w
0v
0u
0t
0s
0r
0q
0p
0o
0n
0m
0B!
0D!
0F!
0H!
0J!
0L!
0N!
0Q!
0S!
0U!
0W!
0Y!
0\!
0^!
0`!
0b!
0A!
0C!
0E!
0G!
0I!
0K!
0M!
0P!
0R!
0T!
0V!
0X!
0[!
0]!
0_!
0a!
0c!
1~!
1""
1$"
1&"
1("
1*"
1,"
1."
10"
12"
14"
16"
18"
1:"
1<"
1>"
1@"
1!"
1#"
1%"
1'"
1)"
1+"
1-"
1/"
11"
13"
15"
17"
19"
1;"
1="
1?"
0l!
0}!
0k!
0z!
0|!
1j!
0x!
0O!
0u!
0v!
1g!
0s!
0Z!
0p!
0q!
0d!
0m!
0n!
1I"
1J"
0F"
1K"
0C"
1B"
0y!
0w!
0t!
0r!
0o!
02!
01!
05!
04!
07!
0:!
09!
0<!
0?!
0>!
0@!
00!
0.!
0/!
0+!
0,!
0)!
0&!
0'!
0$!
0!!
0"!
0~
0}
0R
0Q
0O
0N
0L
0J
0I
0G
0E
0D
0C
0B
03!
06!
08!
0;!
0=!
0-!
0*!
0(!
0%!
0#!
0P
0M
0K
0H
0F
#140000
1A
1\
1c!
0~!
1m!
11!
1/!
1R
#150000
1!
1"
1#
1$
1%
1&
1'
1(
1)
1*
1+
1,
1-
1.
1/
10
1l
1k
1j
1i
1h
1g
1f
1e
1d
1c
1b
1a
1`
1_
1^
1]
1A!
1C!
1E!
1G!
1I!
1K!
1M!
1P!
1R!
1T!
1V!
1X!
1[!
1]!
1_!
1a!
0""
0$"
0&"
0("
0*"
0,"
0."
00"
02"
04"
06"
08"
0:"
0<"
0>"
0@"
1{!
1}!
1y!
1z!
1w!
1x!
1h!
1t!
1u!
1r!
1s!
1e!
1o!
1p!
1d!
0m!
0I"
0H"
0E"
0A"
1|!
1v!
1f!
0o!
0p!
0G"
01!
14!
13!
17!
16!
19!
18!
1<!
1;!
1>!
1=!
1@!
0g!
0r!
0s!
0/!
1,!
1-!
1)!
1*!
1'!
1(!
1$!
1%!
1"!
1#!
1~
1F"
0R
1P
1O
1M
1L
1K
1J
1H
1G
1F
1E
1C
04!
03!
1:!
1?!
1i!
0t!
0u!
0v!
0,!
0-!
1&!
1!!
0D"
0P
0O
1I
1D
07!
06!
0j!
0w!
0x!
0)!
0*!
1C"
0M
0L
0:!
09!
08!
1k!
0y!
0z!
0|!
0&!
0'!
0(!
0B"
0K
0J
0I
0<!
0;!
1l!
0}!
0$!
0%!
0H
0G
0?!
0>!
0=!
0!!
0"!
0#!
0F
0E
0D
0@!
10!
0~
1}
0C
1B
#160000
0A
0\
0c!
1~!
0d!
1m!
1n!
1I"
0f!
1o!
1p!
1q!
1G"
12!
11!
1g!
1r!
1s!
1.!
1/!
0F"
1R
1Q
15!
14!
13!
0i!
1t!
1u!
1v!
1+!
1,!
1-!
1D"
1P
1O
1N
17!
16!
1j!
1w!
1x!
1)!
1*!
0C"
1M
1L
1:!
19!
18!
0k!
1y!
1z!
1|!
1&!
1'!
1(!
1B"
1K
1J
1I
1<!
1;!
0l!
1}!
1$!
1%!
1H
1G
1?!
1>!
1=!
1!!
1"!
1#!
1F
1E
1D
1@!
00!
1~
0}
1C
0B
#180000
1A
0!
0"
0#
0$
0%
0&
0'
0(
0)
0*
0+
0,
0-
0.
0/
00
11
12
13
14
15
16
17
18
19
1:
1;
1<
1=
1>
1?
1@
1\
0l
0k
0j
0i
0h
0g
0f
0e
0d
0c
0b
0a
0`
0_
0^
0]
1|
1{
1z
1y
1x
1w
1v
1u
1t
1s
1r
1q
1p
1o
1n
1m
1B!
1D!
1F!
1H!
1J!
1L!
1N!
1Q!
1S!
1U!
1W!
1Y!
1\!
1^!
1`!
1b!
0A!
0C!
0E!
0G!
0I!
0K!
0M!
0P!
0R!
0T!
0V!
0X!
0[!
0]!
0_!
0a!
1c!
0~!
1""
1$"
1&"
1("
1*"
1,"
1."
10"
12"
14"
16"
18"
1:"
1<"
1>"
1@"
0!"
0#"
0%"
0'"
0)"
0+"
0-"
0/"
01"
03"
05"
07"
09"
0;"
0="
0?"
1d!
0m!
0n!
0I"
1f!
0o!
0p!
0q!
0G"
02!
01!
0g!
0r!
0s!
0.!
0/!
1F"
0R
0Q
05!
04!
03!
1i!
0t!
0u!
0v!
0+!
0,!
0-!
0D"
0P
0O
0N
07!
06!
0j!
0w!
0x!
0)!
0*!
1C"
0M
0L
0:!
09!
08!
1k!
0y!
0z!
0|!
0&!
0'!
0(!
0B"
0K
0J
0I
0<!
0;!
1l!
0}!
0$!
0%!
0H
0G
0?!
0>!
0=!
0!!
0"!
0#!
0F
0E
0D
0@!
10!
0~
1}
0C
1B
#200000
0A
0\
0c!
1~!
0d!
1m!
1n!
1I"
0f!
1o!
1p!
1q!
1G"
12!
11!
1g!
1r!
1s!
1.!
1/!
0F"
1R
1Q
15!
14!
13!
0i!
1t!
1u!
1v!
1+!
1,!
1-!
1D"
1P
1O
1N
17!
16!
1j!
1w!
1x!
1)!
1*!
0C"
1M
1L
1:!
19!
18!
0k!
1y!
1z!
1|!
1&!
1'!
1(!
1B"
1K
1J
1I
1<!
1;!
0l!
1}!
1$!
1%!
1H
1G
1?!
1>!
1=!
1!!
1"!
1#!
1F
1E
1D
1@!
00!
1~
0}
1C
0B
#210000
1!
1"
1#
1$
1%
1&
1'
1(
1)
1*
1+
1,
1-
1.
1/
10
1l
1k
1j
1i
1h
1g
1f
1e
1d
1c
1b
1a
1`
1_
1^
1]
1A!
1C!
1E!
1G!
1I!
1K!
1M!
1P!
1R!
1T!
1V!
1X!
1[!
1]!
1_!
1a!
0""
0$"
0&"
0("
0*"
0,"
0."
00"
02"
04"
06"
08"
0:"
0<"
0>"
0@"
1l!
0{!
1k!
0y!
0|!
0j!
0w!
1O!
0h!
1i!
0t!
0v!
0g!
0r!
1Z!
0e!
1f!
0o!
0q!
1d!
0m!
0I"
0G"
1H"
0J"
1F"
0D"
1E"
0K"
1C"
0B"
1A"
1y!
1|!
1w!
0i!
1t!
1v!
1r!
0f!
1o!
1q!
1G"
1D"
01!
05!
03!
06!
0:!
08!
0;!
0?!
0=!
10!
0/!
0+!
0-!
0*!
0&!
0(!
0%!
0!!
0#!
1}
0R
0P
0N
0M
0K
0I
0H
0F
0D
1B
15!
13!
16!
1:!
18!
1;!
1?!
1=!
1+!
1-!
1*!
1&!
1(!
1%!
1!!
1#!
1P
1N
1M
1K
1I
1H
1F
1D
#220000
1A
1\
1c!
0~!
1m!
11!
1/!
1R
#240000
0A
0!
0"
0#
0$
0%
0&
0'
0(
0)
0*
0+
0,
0-
0.
0/
00
01
02
03
04
05
06
07
08
09
0:
0;
0<
0=
0>
0?
0@
0\
0l
0k
0j
0i
0h
0g
0f
0e
0d
0c
0b
0a
0`
0_
0^
0]
0|
0{
0z
0y
0x
0w
0v
0u
0t
0s
0r
0q
0p
0o
0n
0m
0B!
0D!
0F!
0H!
0J!
0L!
0N!
0Q!
0S!
0U!
0W!
0Y!
0\!
0^!
0`!
0b!
0A!
0C!
0E!
0G!
0I!
0K!
0M!
0P!
0R!
0T!
0V!
0X!
0[!
0]!
0_!
0a!
0c!
1~!
1""
1$"
1&"
1("
1*"
1,"
1."
10"
12"
14"
16"
18"
1:"
1<"
1>"
1@"
1!"
1#"
1%"
1'"
1)"
1+"
1-"
1/"
11"
13"
15"
17"
19"
1;"
1="
1?"
0l!
0}!
0k!
0z!
0|!
1j!
0x!
0O!
0u!
0v!
1g!
0s!
0Z!
0p!
0q!
0d!
0m!
0n!
1I"
1J"
0F"
1K"
0C"
1B"
0y!
0w!
0t!
0r!
0o!
02!
01!
05!
04!
07!
0:!
09!
0<!
0?!
0>!
0@!
00!
0.!
0/!
0+!
0,!
0)!
0&!
0'!
0$!
0!!
0"!
0~
0}
0R
0Q
0O
0N
0L
0J
0I
0G
0E
0D
0C
0B
03!
06!
08!
0;!
0=!
0-!
0*!
0(!
0%!
0#!
0P
0M
0K
0H
0F
#260000
1A
1\
1c!
0~!
1m!
11!
1/!
1R
#270000
1!
1"
1#
1$
1%
1&
1'
1(
1)
1*
1+
1,
1-
1.
1/
10
1l
1k
1j
1i
1h
1g
1f
1e
1d
1c
1b
1a
1`
1_
1^
1]
1A!
1C!
1E!
1G!
1I!
1K!
1M!
1P!
1R!
1T!
1V!
1X!
1[!
1]!
1_!
1a!
0""
0$"
0&"
0("
0*"
0,"
0."
00"
02"
04"
06"
08"
0:"
0<"
0>"
0@"
1{!
1}!
1y!
1z!
1w!
1x!
1h!
1t!
1u!
1r!
1s!
1e!
1o!
1p!
1d!
0m!
0I"
0H"
0E"
0A"
1|!
1v!
1f!
0o!
0p!
0G"
01!
14!
13!
17!
16!
19!
18!
1<!
1;!
1>!
1=!
1@!
0g!
0r!
0s!
0/!
1,!
1-!
1)!
1*!
1'!
1(!
1$!
1%!
1"!
1#!
1~
1F"
0R
1P
1O
1M
1L
1K
1J
1H
1G
1F
1E
1C
04!
03!
1:!
1?!
1i!
0t!
0u!
0v!
0,!
0-!
1&!
1!!
0D"
0P
0O
1I
1D
07!
06!
0j!
0w!
0x!
0)!
0*!
1C"
0M
0L
0:!
09!
08!
1k!
0y!
0z!
0|!
0&!
0'!
0(!
0B"
0K
0J
0I
0<!
0;!
1l!
0}!
0$!
0%!
0H
0G
0?!
0>!
0=!
0!!
0"!
0#!
0F
0E
0D
0@!
10!
0~
1}
0C
1B
#280000
0A
0\
0c!
1~!
0d!
1m!
1n!
1I"
0f!
1o!
1p!
1q!
1G"
12!
11!
1g!
1r!
1s!
1.!
1/!
0F"
1R
1Q
15!
14!
13!
0i!
1t!
1u!
1v!
1+!
1,!
1-!
1D"
1P
1O
1N
17!
16!
1j!
1w!
1x!
1)!
1*!
0C"
1M
1L
1:!
19!
18!
0k!
1y!
1z!
1|!
1&!
1'!
1(!
1B"
1K
1J
1I
1<!
1;!
0l!
1}!
1$!
1%!
1H
1G
1?!
1>!
1=!
1!!
1"!
1#!
1F
1E
1D
1@!
00!
1~
0}
1C
0B
#300000
1A
0!
0"
0#
0$
0%
0&
0'
0(
0)
0*
0+
0,
0-
0.
0/
00
11
12
13
14
15
16
17
18
19
1:
1;
1<
1=
1>
1?
1@
1\
0l
0k
0j
0i
0h
0g
0f
0e
0d
0c
0b
0a
0`
0_
0^
0]
1|
1{
1z
1y
1x
1w
1v
1u
1t
1s
1r
1q
1p
1o
1n
1m
1B!
1D!
1F!
1H!
1J!
1L!
1N!
1Q!
1S!
1U!
1W!
1Y!
1\!
1^!
1`!
1b!
0A!
0C!
0E!
0G!
0I!
0K!
0M!
0P!
0R!
0T!
0V!
0X!
0[!
0]!
0_!
0a!
1c!
0~!
1""
1$"
1&"
1("
1*"
1,"
1."
10"
12"
14"
16"
18"
1:"
1<"
1>"
1@"
0!"
0#"
0%"
0'"
0)"
0+"
0-"
0/"
01"
03"
05"
07"
09"
0;"
0="
0?"
1d!
0m!
0n!
0I"
1f!
0o!
0p!
0q!
0G"
02!
01!
0g!
0r!
0s!
0.!
0/!
1F"
0R
0Q
05!
04!
03!
1i!
0t!
0u!
0v!
0+!
0,!
0-!
0D"
0P
0O
0N
07!
06!
0j!
0w!
0x!
0)!
0*!
1C"
0M
0L
0:!
09!
08!
1k!
0y!
0z!
0|!
0&!
0'!
0(!
0B"
0K
0J
0I
0<!
0;!
1l!
0}!
0$!
0%!
0H
0G
0?!
0>!
0=!
0!!
0"!
0#!
0F
0E
0D
0@!
10!
0~
1}
0C
1B
#320000
0A
0\
0c!
1~!
0d!
1m!
1n!
1I"
0f!
1o!
1p!
1q!
1G"
12!
11!
1g!
1r!
1s!
1.!
1/!
0F"
1R
1Q
15!
14!
13!
0i!
1t!
1u!
1v!
1+!
1,!
1-!
1D"
1P
1O
1N
17!
16!
1j!
1w!
1x!
1)!
1*!
0C"
1M
1L
1:!
19!
18!
0k!
1y!
1z!
1|!
1&!
1'!
1(!
1B"
1K
1J
1I
1<!
1;!
0l!
1}!
1$!
1%!
1H
1G
1?!
1>!
1=!
1!!
1"!
1#!
1F
1E
1D
1@!
00!
1~
0}
1C
0B
